{
    "mode": "modules",
    "out": "../docs",
    "theme": "default",
    "ignoreCompilerErrors": "true",
    "experimentalDecorators": "true",
    "emitDecoratorMetadata": "true",
    "target": "ES5",
    "moduleResolution": "node",
    "preserveConstEnums": "true",
    "stripInternal": "true",
    "suppressExcessPropertyErrors": "true",
    "suppressImplicitAnyIndexErrors": "true",
    "module": "commonjs"
}