<?xml version="1.0" encoding="UTF-8" standalone="no"?>
<!-- Created with Inkscape (http://www.inkscape.org/) -->

<svg
   xmlns:dc="http://purl.org/dc/elements/1.1/"
   xmlns:cc="http://creativecommons.org/ns#"
   xmlns:rdf="http://www.w3.org/1999/02/22-rdf-syntax-ns#"
   xmlns:svg="http://www.w3.org/2000/svg"
   xmlns="http://www.w3.org/2000/svg"
   xmlns:sodipodi="http://sodipodi.sourceforge.net/DTD/sodipodi-0.dtd"
   xmlns:inkscape="http://www.inkscape.org/namespaces/inkscape"
   width="256"
   height="256"
   viewBox="0 0 67.733332 67.733332"
   version="1.1"
   id="svg8"
   inkscape:version="0.92.3 (2405546, 2018-03-11)"
   sodipodi:docname="logo_sqaure.svg">
  <defs
     id="defs2" />
  <sodipodi:namedview
     id="base"
     pagecolor="#ffffff"
     bordercolor="#666666"
     borderopacity="1.0"
     inkscape:pageopacity="0.0"
     inkscape:pageshadow="2"
     inkscape:zoom="1.979899"
     inkscape:cx="128.4242"
     inkscape:cy="140.77214"
     inkscape:document-units="mm"
     inkscape:current-layer="layer1"
     showgrid="false"
     units="px"
     inkscape:pagecheckerboard="true"
     inkscape:window-width="1904"
     inkscape:window-height="1041"
     inkscape:window-x="1920"
     inkscape:window-y="0"
     inkscape:window-maximized="1" />
  <metadata
     id="metadata5">
    <rdf:RDF>
      <cc:Work
         rdf:about="">
        <dc:format>image/svg+xml</dc:format>
        <dc:type
           rdf:resource="http://purl.org/dc/dcmitype/StillImage" />
        <dc:title></dc:title>
      </cc:Work>
    </rdf:RDF>
  </metadata>
  <g
     inkscape:label="Layer 1"
     inkscape:groupmode="layer"
     id="layer1"
     transform="translate(0,-229.26667)">
    <path
       style="fill:#ffffff;fill-opacity:1;stroke:#000000;stroke-width:0.28437862;stroke-opacity:1;opacity:1"
       d="m 7.1990763,230.18368 c -0.4588143,0.0127 -0.9144171,0.13386 -1.3147256,0.35467 -2.136349,1.17849 -1.552329,0.75248 -2.5340503,1.51326 -0.7644069,0.616 -1.3066767,1.41109 -1.7702788,2.25156 -0.3681241,0.63028 -0.5740091,1.3174 -0.67514475,2.03024 0.0425725,0.67007 0.40317185,1.03412 0.93876715,1.40723 0.6993267,0.43676 1.5294652,0.57291 2.3376037,0.6946 0.8718799,0.1389 1.7534215,0.20074 2.631709,0.28746 0.7157921,0.0644 1.4097342,0.18452 2.0576106,0.4924 0.6716007,0.34632 0.9839592,0.96243 1.2210177,1.62966 0.264175,0.88927 0.21718,1.65799 -0.03048,2.54067 -0.2104993,0.56913 -0.490136,1.1276 -0.8625593,1.61599 -0.2207808,0.28952 -0.3548582,0.39826 -0.61813,0.65033 -0.00147,0.001 -0.00137,0.001 -0.00282,0.002 -0.1368578,0.0471 -0.2928512,0.0978 -0.4781334,0.14701 -0.5329024,0.10222 -1.0944236,0.17852 -1.6347984,0.0754 -0.3341136,-0.0637 -0.43913,-0.12758 -0.7485296,-0.25849 -0.7536734,-0.39284 -1.0255536,-0.88861 -1.2244055,-1.66409 l -1.8814857,0.98697 c 0.2274249,0.82154 0.5372001,1.38185 1.3265803,1.81821 0.3215875,0.14955 0.4344195,0.22103 0.7829644,0.30658 0.5511886,0.13528 1.1320287,0.0755 1.6856035,-0.0104 1.2812125,-0.2825 1.516457,-0.58053 3.0375864,-1.41214 0.397489,-0.21731 0.7710813,-0.47646 1.1013433,-0.78204 0.666981,-0.69308 1.148967,-1.45195 1.434964,-2.36415 0.227882,-0.92303 0.259123,-1.73023 -0.01919,-2.65106 -0.256906,-0.71157 -0.595232,-1.379 -1.296661,-1.77066 -0.661196,-0.34115 -1.3682037,-0.48577 -2.1123679,-0.54923 -0.8771624,-0.0847 -1.757884,-0.14194 -2.6288867,-0.27761 -0.7783421,-0.10593 -1.5850481,-0.22431 -2.2681697,-0.6241 -0.4756674,-0.31652 -0.8167188,-0.61 -0.8196573,-1.20886 0.1097911,-0.68873 0.325296,-1.3472 0.6869993,-1.95427 0.4282327,-0.74272 0.9244591,-1.4415 1.5902027,-1.99909 0.1122921,-0.0266 0.2265434,-0.0476 0.3443463,-0.0547 0.4017015,-0.009 0.8136577,0.0235 1.1527133,0.25359 0.239101,0.22213 0.3398292,0.38668 0.3330565,0.72082 -0.014144,0.46128 -0.1152216,0.91658 -0.2184626,1.36571 l 1.9526133,-0.91157 c 0.080302,-0.46485 0.1951572,-0.92969 0.1947532,-1.40286 0.00461,-0.36301 -0.1591951,-0.6236 -0.4154736,-0.87056 -0.3577495,-0.29236 -0.8036699,-0.35864 -1.2560174,-0.37873 z m 5.9188057,0.79843 c -0.377383,0.004 -0.792259,0.5863 -1.637621,1.30941 -0.07634,0.0653 0.0313,0.19517 0.05137,0.29183 0.03032,0.14607 0.06666,0.29063 0.09992,0.4361 0.44847,1.8093 0.948145,3.60606 1.430448,5.40705 0.609448,2.25058 1.15668,4.51617 1.666411,6.78969 0.311289,1.42048 0.621253,2.84145 0.988443,4.24957 0.141886,0.46457 0.198754,1.01492 0.567324,1.37389 0.771611,0.46104 1.553026,-0.66597 2.170511,-1.08862 0.06016,-0.0412 0.157678,-0.65647 0.172174,-0.72848 0.14627,-1.15324 0.188287,-2.31849 0.236526,-3.47901 0.03065,-0.97196 0.07111,-1.94369 0.118546,-2.91501 0.185545,0.52637 0.381233,1.04928 0.593291,1.5668 0.439016,1.10691 1.039457,2.13154 1.740361,3.09974 0.435707,0.57112 0.951965,1.07047 1.603185,1.40177 0.410547,0.1776 0.837466,0.22124 1.275775,0.14045 0.609222,-0.34542 1.82379,-0.67282 2.3043,-1.42472 l 1.555766,-0.82412 c -0.244439,-0.74986 -0.505117,-1.49448 -0.745707,-2.24557 -0.413905,-1.26377 -0.859353,-2.51703 -1.310772,-3.76865 -0.315662,-0.9386 -0.632769,-1.87667 -0.969252,-2.80844 l -1.889388,1.0214 c 0.377887,0.90809 0.698362,1.83916 1.019489,2.76746 0.410571,1.11056 0.800805,2.22706 1.167392,3.35168 l -0.395715,0.19728 c 0.03573,0.79375 0.04447,1.59369 -0.09766,2.37945 -0.0088,0.0347 -0.01468,0.0579 -0.02201,0.0885 -0.0309,-0.008 -0.06242,-0.0141 -0.09314,-0.024 -0.647443,-0.27931 -1.146775,-0.75476 -1.575527,-1.29574 -0.703699,-0.947 -1.304864,-1.95254 -1.739795,-3.04455 -0.529023,-1.27625 -0.968945,-2.58362 -1.300613,-3.92166 -0.124559,-0.43642 -0.230096,-0.88406 -0.382169,-1.31269 -0.07079,-0.19954 -0.1944,-0.48019 -0.25967,-0.45196 -0.680962,0.29402 -1.285336,0.73264 -1.927775,1.09901 -0.242069,0.88108 -0.164162,1.82259 -0.287897,2.71992 -0.08984,1.66058 -0.161187,3.32212 -0.233138,4.98351 -0.167401,-0.67943 -0.327084,-1.36093 -0.483779,-2.04281 -0.532143,-2.26926 -1.087144,-4.53342 -1.684475,-6.7875 -0.472281,-1.80766 -0.958572,-3.61317 -1.334483,-5.44256 -0.02398,-0.14431 -0.05385,-0.28771 -0.07169,-0.43284 -0.0042,-0.0338 0.0051,-0.0853 0.01355,-0.13444 l 0.195883,-0.1082 c -0.193057,-0.27788 -0.356836,-0.39488 -0.528374,-0.39293 z m 16.144196,0.84761 -1.889389,1.02196 c 0.507668,1.24135 0.865879,2.53004 1.205779,3.82166 0.501984,1.87034 0.904481,3.76256 1.292711,5.65735 -0.477739,0.57903 -0.95606,1.15812 -1.476739,1.70179 l 1.682782,-0.6875 c 0.32661,1.60261 0.569868,3.21954 0.81401,4.83542 0.05138,0.41133 0.120061,0.82051 0.19419,1.22852 0.03434,0.18903 0.04403,0.31007 0.162014,0.45796 0.63295,-0.38 1.266031,-0.75998 1.898984,-1.13999 l -1.962211,0.91538 c 0.615314,-0.3236 1.230608,-0.64697 1.845922,-0.97058 -0.08091,-0.22976 -0.181308,-0.88692 -0.195882,-0.96839 -0.02842,-0.15889 -0.05423,-0.31799 -0.08129,-0.4771 -0.291056,-1.65661 -0.562928,-3.3167 -0.911105,-4.96329 -0.04256,-0.20431 -0.08675,-0.4083 -0.129272,-0.61262 0.178288,-0.21935 0.35583,-0.43921 0.536841,-0.65634 0.981506,-1.21397 1.920459,-2.45863 2.899283,-3.67465 0.816546,-1.05033 1.631932,-2.10163 2.495099,-3.11668 l -1.953176,0.80608 c -0.837555,1.01854 -1.63847,2.06447 -2.449939,3.10247 -0.604756,0.75417 -1.196093,1.51801 -1.794552,2.27671 -0.328361,-1.5585 -0.665087,-3.11528 -1.061266,-4.65944 -0.325742,-1.31259 -0.679804,-2.61787 -1.122797,-3.89872 z m 3.768053,16.84197 c 0.01424,0.0404 0.02822,0.0716 0.04065,0.0798 0.02604,0.0172 -0.01688,-0.0587 -0.02541,-0.088 -0.0051,0.003 -0.01013,0.005 -0.01524,0.008 z m -21.406486,-16.4545 c 0.01866,0.009 0.03435,0.0419 0.04911,0.0759 -0.02496,0.0124 -0.04878,0.0268 -0.07395,0.0388 -0.03527,0.0167 -0.03576,-0.0947 -0.0017,-0.11368 0.0094,-0.005 0.01824,-0.005 0.02653,-0.001 z m 41.660262,13.39467 c -0.623401,0.42255 -1.296728,0.78355 -1.870198,1.26787 -0.07526,0.0635 0.01737,0.19232 0.0271,0.28855 0.07292,0.7209 0.24861,1.41965 0.409828,2.12587 0.370438,1.72899 0.778345,3.44956 1.203519,5.16659 0.06303,0.24037 0.129278,0.47992 0.194754,0.71975 -0.869071,0.40905 -1.074417,0.49664 -1.402223,1.48101 -0.326353,1.06653 -0.364542,2.18773 -0.410959,3.29155 -0.0019,0.0805 4.02e-4,0.16074 5.66e-4,0.241 -0.008,-0.0299 -0.01629,-0.0597 -0.02427,-0.0896 -0.449059,-1.57971 -0.889255,-3.16299 -1.251499,-4.76382 -0.394658,-1.71826 -0.780099,-3.44663 -0.954574,-5.20101 -0.01885,-0.36134 -0.05604,-0.85435 -0.035,-1.22361 0.02878,-0.50516 0.142966,-1.01046 0.296363,-1.49248 l -1.961645,0.89188 c -0.113896,0.49537 -0.221908,1.0037 -0.233705,1.51325 -0.0071,0.306 0.04993,0.95521 0.07169,1.24383 0.216746,1.75541 0.607612,3.48687 1.00538,5.21085 0.217959,0.95768 0.45981,1.90984 0.709013,2.86037 -0.01395,-0.0304 -0.02672,-0.0611 -0.04008,-0.0918 -0.354949,-0.71651 -0.826389,-1.35982 -1.397142,-1.92804 -0.36,-0.32806 -0.716079,-0.68914 -1.193922,-0.84653 l -1.778183,1.20285 c 0.463151,4.7e-4 0.811093,0.47586 1.144811,0.72683 0.563691,0.53996 1.025269,1.15759 1.3644,1.85428 0.05259,0.1219 0.113634,0.24068 0.158063,0.3656 0.240258,0.67564 0.222982,1.40891 0.07338,2.10019 -0.20102,0.74881 -0.476114,1.39377 -0.978281,1.95099 -0.237408,0.0104 -0.309688,-0.0332 -0.571842,-0.11858 -0.104612,-0.0617 -0.216399,-0.11345 -0.313861,-0.18527 -0.703409,-0.51853 -1.017507,-1.37197 -1.288196,-2.15046 -0.393598,-1.44238 -0.612956,-2.91431 -0.550955,-4.41079 0.03694,-0.59297 0.07025,-1.19557 0.16032,-1.78704 0.102571,0.56092 0.182183,1.12499 0.210561,1.69469 l 1.920999,-0.97332 c -0.05438,-0.60747 -0.14546,-1.20973 -0.254591,-1.80999 -0.09487,-0.491 -0.25568,-0.96179 -0.6345,-1.31215 -0.142812,-0.0831 -0.330233,-0.15686 -0.493374,-0.0628 -1.649137,0.95035 -1.774943,0.66569 -2.259138,1.73514 -0.418506,1.09188 -0.45877,2.27296 -0.515954,3.4238 -0.0044,0.16115 -0.0044,0.32144 -0.0028,0.48201 -0.101065,-0.33448 -0.198581,-0.67009 -0.287896,-1.00773 -0.274808,-1.13181 -0.546861,-2.26507 -0.759821,-3.4096 -0.02839,-0.12017 -0.05081,-0.24149 -0.08523,-0.36015 -0.02555,-0.0881 -0.0039,-0.284 -0.09484,-0.25904 -0.02935,0.008 -0.0387,0.009 -0.06718,0.0175 0.09768,-0.40781 0.04546,-0.40603 -0.715224,0.18362 -1.15976,0.28841 -1.195128,0.28948 -1.302307,1.24274 -0.09335,0.99697 -0.139088,1.99793 -0.211688,2.99645 -0.07861,1.06869 -0.16897,2.13753 -0.291282,3.20247 -0.310159,-1.24155 -0.607367,-2.4859 -0.861994,-3.73968 -0.41268,-1.98598 -0.774183,-3.98346 -1.013282,-5.99672 -0.13373,-1.188 -0.315555,-2.41398 -0.08976,-3.60142 l -1.961646,0.89188 c -0.110028,1.21617 0.06875,2.43199 0.224674,3.6364 0.267595,2.01369 0.626084,4.01485 1.027958,6.0071 0.292798,1.49484 0.64031,2.97819 0.987877,4.46161 0.104196,0.3416 0.167571,0.7041 0.262495,1.05474 l -0.48886,0.22679 c -0.170114,0.63063 -0.456686,1.20893 -0.884009,1.71764 -0.146998,0.1672 -0.296606,0.32506 -0.455553,0.47491 -0.45935,0.0984 -0.901654,0.0766 -1.379644,-0.147 -0.0911,-0.0531 -0.187849,-0.0982 -0.273218,-0.15959 -0.532428,-0.38294 -0.801744,-0.98918 -1.000299,-1.58046 -0.05647,-0.20487 -0.100285,-0.40704 -0.137174,-0.60826 0.219922,-0.2289 0.38671,-0.53991 0.639017,-1.1001 0.24381,-0.63982 0.450992,-1.29189 0.620387,-1.95372 0.111084,-0.5728 0.227563,-1.14501 0.310477,-1.72256 0.05273,-0.37581 0.110627,-0.71764 -0.313298,-0.88587 -1.35164,-0.002 -2.161674,0.936 -2.703402,1.90399 -0.355955,0.74941 -0.448078,1.56782 -0.520471,2.37945 -0.02602,0.37926 -0.04093,0.76214 -0.03557,1.14436 l -1.099085,0.61919 c 0.233503,0.28184 0.473001,0.69128 0.880058,0.75198 0.06327,0.009 0.12848,-0.002 0.192494,-0.003 0.06637,-0.0342 0.09426,-0.0462 0.156369,-0.0776 0.005,0.0238 0.0088,0.0478 0.01411,0.0716 0.02436,0.10858 0.05836,0.21508 0.09032,0.32188 l -0.846191,0.38474 c -0.107118,0.30335 -0.21913,0.6048 -0.349989,0.89953 -0.12229,0.24953 -0.25803,0.49489 -0.421119,0.71919 -0.127826,0.002 -0.255842,-0.004 -0.382168,-0.0268 -0.662816,-0.13791 -1.157375,-0.38249 -1.574398,-0.9203 -0.06615,-0.0992 -0.140403,-0.1941 -0.198705,-0.29784 -0.37327,-0.66398 -0.402727,-1.42799 -0.409827,-2.16632 0.06278,-1.0589 0.143669,-2.13706 0.576357,-3.12541 0.107769,-0.21433 0.176687,-0.3498 0.258542,-0.4924 0.140068,0.0911 0.264651,0.21118 0.370313,0.32954 l 1.857212,-1.08261 c -0.283892,-0.29327 -0.624149,-0.59314 -1.06691,-0.59842 -0.08228,-10e-4 -0.163349,0.0206 -0.244992,0.0301 -1.88834,0.69454 -2.430097,1.18492 -3.10928,2.66801 -0.396774,1.01834 -0.46783,2.11361 -0.53063,3.18991 0.01418,0.58599 0.03259,1.18162 0.216202,1.74387 -0.391756,-0.38832 -0.666131,-0.84893 -0.816834,-1.37827 -0.11953,-0.41062 -0.224562,-0.82791 -0.301443,-1.24929 0.0053,-0.39882 0.0013,-0.7978 -0.03669,-1.19574 -0.135157,-1.06299 -0.791742,-0.0954 -1.959387,0.73449 -8.27e-4,-10e-4 -1.69e-4,-0.004 -0.0011,-0.005 -0.0081,-0.009 -0.0078,-0.003 -0.0039,0.009 -0.01732,0.0123 -0.03214,0.025 -0.04968,0.0371 -0.01971,0.0137 0.01111,0.31569 0.01919,0.41425 0.02574,0.30093 0.07306,0.59956 0.129836,0.8968 -0.0018,0.31131 -0.01042,0.62271 -0.01807,0.93397 -0.03745,0.79174 -0.07863,1.59743 -0.377652,2.34502 -0.01353,0.0289 -0.02879,0.0547 -0.04234,0.0831 -0.09709,-0.0721 -0.194897,-0.16248 -0.302009,-0.27271 -0.582693,-0.72422 -0.71221,-1.52874 -0.774497,-2.427 -0.01562,-0.4889 -0.03637,-0.82306 -0.009,-1.31541 0.05194,-0.93567 0.212569,-1.8676 0.441441,-2.77676 0.103729,-0.3399 0.206969,-0.67974 0.338137,-1.00938 0.250236,0.34708 0.407399,0.741 0.543051,1.14546 l 1.898421,-1.01212 c -0.183828,-0.47588 -0.370254,-0.94291 -0.689822,-1.34984 -0.207846,-0.21204 -0.489518,-0.4273 -0.815141,-0.36998 -0.07197,0.0127 -0.13847,0.0455 -0.207737,0.0683 -0.678554,0.40081 -1.376973,0.77198 -2.035595,1.20284 -0.110611,0.0724 -0.350119,0.52799 -0.388942,0.60826 -0.246492,0.50939 -0.38917,1.04883 -0.5391,1.58975 -0.209346,0.92168 -0.367649,1.86216 -0.415473,2.80627 -0.02286,0.45143 -0.0015,0.88974 0.01185,1.34056 0.0517,0.78441 0.167455,1.60664 0.597243,2.29255 0.05891,0.094 0.133621,0.17776 0.200398,0.2667 0.390895,0.4347 0.68408,0.6467 1.291017,0.57109 0.969028,-0.37844 2.049339,-0.82103 2.582597,-1.72366 0.0084,-0.0142 0.01447,-0.0312 0.02258,-0.0459 0.262032,0.24462 0.569767,0.40184 0.926348,0.47764 0.250009,0.008 0.126633,0.0153 0.36862,-0.0213 l 0.95175,-0.70061 c 0.411789,0.49259 0.908045,0.76526 1.549559,0.93396 1.413415,0.26764 2.239795,-0.5717 3.501606,-1.27716 0.290023,-0.22757 0.512199,-0.51681 0.697727,-0.82795 0.167381,0.29365 0.376832,0.56197 0.651435,0.77658 0.0917,0.0716 0.195285,0.1275 0.292975,0.19127 0.691409,0.36019 1.280263,0.3534 2.01471,0.14264 1.38061,-0.51459 2.685076,-1.26985 3.58967,-2.4046 0.03554,-0.0446 0.06826,-0.0905 0.101609,-0.13607 0.588201,0.0864 1.244089,-0.7411 1.858342,-1.10885 0.04016,-0.024 0.233226,-0.52884 0.252333,-0.576 0.253929,-0.8289 0.372617,-1.68746 0.469667,-2.5445 0.04207,-0.37604 0.07614,-0.75294 0.112335,-1.12961 0.219867,0.73818 0.460969,1.47043 0.727077,2.19419 0.213436,0.57923 0.479447,1.13111 0.912803,1.58484 0.286064,0.26269 0.534358,0.38606 0.926911,0.30495 0.04225,-0.0171 0.08476,-0.0343 0.127012,-0.0514 l 0.08919,-0.0688 c 0.225806,0.504 0.520997,0.97633 0.960219,1.33183 0.102902,0.0833 0.220815,0.14728 0.331362,0.22078 0.59801,0.30262 1.239694,0.22504 1.810361,-0.10492 0.723392,-0.41829 1.434509,-0.85584 2.151881,-1.28373 0.745376,-0.70481 1.06965,-1.48838 1.30174,-2.45049 0.08265,-0.4168 0.114552,-0.84579 0.08016,-1.26898 0.063,0.23395 0.123443,0.46843 0.186849,0.70226 0.235468,0.91585 0.455212,1.83606 0.693772,2.75106 0.04573,0.19153 0.09411,0.3815 0.168222,0.56454 l 1.555204,-0.84707 c 0.02038,0.0645 0.03908,0.12921 0.06041,0.19345 0.291962,0.60483 0.722933,1.4316 1.443431,1.65043 0.09801,0.0297 0.203651,0.0268 0.305396,0.0405 1.133627,-0.17933 2.302189,-0.84943 2.900414,-1.8171 0.207991,-0.33645 0.242232,-0.45961 0.395149,-0.82521 0.14934,-0.39659 0.258362,-0.80359 0.336446,-1.21596 0.124832,0.13493 0.273512,0.26138 0.465148,0.38091 0.484542,0.24024 0.882995,0.22331 1.371176,0.0175 0.809443,-0.37156 1.501786,-0.74055 2.127609,-1.2165 0.0118,0.0482 0.02504,0.0999 0.03838,0.14263 0.06975,0.27916 0.187479,0.52862 0.422249,0.70827 0.861055,0.39975 1.990201,-0.4002 2.396313,-1.19574 0.122323,-0.28892 0.129361,-0.60298 0.138864,-0.91047 0.02698,-0.56456 -0.03217,-1.12592 -0.07451,-1.68813 -0.05882,-0.81952 -0.07028,-1.64138 -0.07846,-2.46252 -0.004,-0.62287 8.73e-4,-1.24563 0.0068,-1.86847 0.0044,-0.4099 0.208453,-0.65471 0.451038,-0.96786 0.342191,-0.43074 0.763598,-0.78826 1.177552,-1.15146 0.402375,-0.35433 0.817877,-0.69407 1.208035,-1.0613 l -1.984791,0.79024 c -0.398071,0.35852 -0.80866,0.7039 -1.210856,1.05801 -0.419407,0.3721 -0.838548,0.74749 -1.172471,1.19684 -0.238119,0.33659 -0.413612,0.66234 -0.391764,1.08424 0.0054,0.61958 0.01166,1.23911 0.01919,1.85865 0.01062,0.8259 0.02259,1.65215 0.07564,2.47672 0.0048,0.072 0.0082,0.14392 0.01299,0.21587 -0.833637,0.0574 -1.6218,1.18999 -2.11801,1.76409 -0.05745,0.0589 -0.116021,0.1153 -0.174433,0.17215 -0.130347,-0.006 -0.269339,-0.0357 -0.430714,-0.0979 -0.606207,-0.31608 -0.774488,-0.74057 -0.978847,-1.34875 l 0.144496,-0.0698 c 0.08387,-0.62995 0.290922,-1.2339 0.44144,-1.85044 0.22207,-0.8606 0.384608,-1.73307 0.552084,-2.60461 0.09664,-0.69605 0.299431,-1.40543 0.235964,-2.11167 -0.02927,-0.0602 -0.04538,-0.12778 -0.0875,-0.18034 -0.04998,-0.0623 -0.222957,-0.18501 -0.324023,-0.13171 -0.684949,0.36107 -1.359672,0.74357 -2.002855,1.1706 -0.05279,0.035 -0.27271,0.56339 -0.277736,0.57492 -0.230116,0.58717 -0.369743,1.19885 -0.471923,1.81711 -0.0132,-0.0474 -0.02505,-0.0954 -0.03838,-0.14265 -0.430439,-1.53233 -0.919981,-3.04811 -1.392064,-4.56871 -0.440722,-1.38991 -0.928984,-2.76512 -1.428755,-4.1359 -0.163149,-0.39758 -0.28017,-0.81135 -0.453859,-1.20503 -0.03959,-0.0897 -0.111084,-0.25499 -0.198705,-0.33009 -0.04104,-0.0352 -0.09333,-0.0558 -0.139995,-0.0836 z m -45.3283979,0.48528 c -0.043813,0.0267 -0.054342,0.0365 -0.1151582,0.0727 -0.1260867,0.075 -0.510882,0.28922 -0.384426,0.21477 0.2327108,-0.137 0.3258831,-0.18748 0.4995842,-0.28746 z m 43.6281159,0.68531 c 0.01928,0.007 0.04444,0.046 0.05871,0.065 0.0094,0.0126 0.01512,0.0273 0.0237,0.0404 -0.02734,0.015 -0.05383,0.0317 -0.08129,0.0465 -0.0059,-0.0488 -0.04555,-0.10521 -0.01807,-0.14646 0.0044,-0.006 0.01051,-0.007 0.01693,-0.005 z m -27.333196,1.67994 c -0.340633,0.26776 -0.638748,0.37585 0,0 z m -6.027754,1.15037 c 0.03551,-0.0175 3.96e-4,0.0833 -0.02484,0.11313 -0.01463,0.0176 -0.04636,-6.5e-4 -0.06943,-0.001 -0.01635,-0.0104 -0.0294,-0.0265 -0.0446,-0.0388 0.04653,-0.024 0.09185,-0.05 0.138868,-0.0732 z m -8.6425284,0.85746 c -0.9989758,0.0308 -0.225799,-0.0268 -2.261396,1.13453 -0.2945533,0.16805 -0.4951734,0.47148 -0.6768381,0.73941 -0.3906291,0.733 -0.6638395,1.51538 -0.8258665,2.3259 -0.1888738,1.10009 -0.2453268,2.21215 -0.2246719,3.32544 l -0.2066079,0.10159 c 0.016086,0.9009 0.1518796,1.79415 0.3093474,2.68057 0.013821,0.0647 0.025318,0.12982 0.03895,0.19455 0.069809,1.0047 0.1639256,2.00795 0.3070892,3.00629 0.1936295,1.49608 0.4089403,2.99112 0.6909507,4.47418 0.1814167,0.7716 0.3619875,1.54423 0.5853889,2.30567 0.015238,0.0695 0.028771,0.13916 0.045725,0.20821 0.00943,0.0385 4.356e-4,0.11679 0.024274,0.13061 -0.00227,-0.003 -0.00961,-0.008 -0.0062,-0.009 0.015961,-0.008 0.032541,-0.0165 0.048547,-0.0252 5.21e-5,0.0104 8.7e-6,0.0207 -0.00226,0.0306 2.2182903,-0.823 1.9857485,-0.2464 1.893905,-1.27607 -0.067808,-0.76889 -0.1830956,-1.53188 -0.3234598,-2.29147 -0.2015263,-1.18588 -0.4567765,-2.36287 -0.6644191,-3.54786 -0.2500215,-1.3866 -0.5065934,-2.77139 -0.7795777,-4.15393 -7.338e-4,-0.004 -0.00153,-0.009 -0.00226,-0.0136 -0.040468,-0.66318 -0.07258,-1.32683 -0.094272,-1.99089 -0.056083,-1.35527 -0.00429,-2.7105 0.2568485,-4.04408 0.1483812,-0.65513 0.3715354,-1.2888 0.6768382,-1.88761 0.3468449,0.23612 0.6286836,0.67137 0.8332051,0.95638 0.613305,0.9409 0.9564184,2.00399 1.2769034,3.06312 0.241985,0.91042 0.432641,1.84773 0.391765,2.79095 -0.02832,0.69447 -0.355339,1.30529 -0.737805,1.87559 -0.3081264,0.42094 -0.6607408,0.8089 -1.0968271,1.10775 -0.054044,0.0363 -0.1061916,0.075 -0.1620119,0.10876 -0.5843576,0.3529 0.3613147,-0.14934 1.0228778,-0.52737 l -1.3288381,1.00446 c 0.9143544,-0.25747 1.7089713,-0.82384 2.4753413,-1.36242 0.410597,-0.33714 0.761527,-0.73236 1.053926,-1.1706 0.372315,-0.6056 0.667316,-1.25035 0.676274,-1.96903 0.0088,-0.96127 -0.184421,-1.91151 -0.443699,-2.83688 -0.329627,-1.07857 -0.684245,-2.1602 -1.294404,-3.1265 -0.374722,-0.54521 -0.773246,-1.17309 -1.476737,-1.33128 z m -2.153576,20.62264 c -0.00985,0.004 -0.016024,0.005 -0.025967,0.008 -0.0068,0.002 -0.00986,-0.002 -0.014113,-0.004 0.00768,0.0121 0.033366,0.0271 0.038386,0.0153 0.00262,-0.006 2.35e-4,-0.0133 0.00169,-0.0197 z m 7.1889354,-17.62291 -1.931726,0.95309 c 0.06412,1.03131 0.22481,2.0586 0.398538,3.07787 0.309956,1.8077 0.649062,3.60999 0.992395,5.41196 0.296197,1.5915 0.587478,3.18389 0.955138,4.76164 0.19499,0.80386 0.398314,1.60594 0.627726,2.40131 l 1.895034,-1.00555 c -0.275285,-0.77131 -0.467131,-1.56941 -0.675144,-2.35924 -0.385966,-1.56668 -0.692902,-3.14943 -0.98788,-4.73431 -0.345917,-1.80267 -0.680078,-3.60672 -0.964734,-5.41961 -0.1551,-1.02096 -0.309576,-2.05385 -0.309347,-3.08716 z m 43.488684,0.20712 c 0.0084,-5.1e-4 0.01633,0.001 0.0237,0.006 0.0093,0.006 0.0134,0.0175 0.01919,0.0268 -0.05841,0.0305 -0.115931,0.0625 -0.174996,0.0918 -0.0032,0.002 0.07335,-0.12158 0.132093,-0.12515 z m -14.8831,0.8028 c 0.01887,-0.004 0.03153,-0.003 0.03669,0.006 -0.117017,0.0646 -0.233793,0.12924 -0.352814,0.19018 -0.08435,0.0431 0.206764,-0.16986 0.316122,-0.19621 z m 9.445251,1.4116 c 0.0037,0.003 0.0065,0.006 0.01016,0.008 -0.06148,0.0328 -0.121482,0.0682 -0.183461,0.10004 -0.03747,0.0192 0.05136,-0.0679 0.08693,-0.0902 0.02489,-0.0159 0.05744,-0.0123 0.08637,-0.0186 z m 0.723127,1.94499 c 0.06822,0.35672 0.121414,0.71574 0.156932,1.07878 v 5.6e-4 l 0.760948,-0.38474 c 0.03625,0.0975 0.06878,0.1963 0.106127,0.29346 0.279285,0.74493 0.61947,1.45817 1.187712,2.03571 0.05978,0.0521 0.06227,0.0539 0.08976,0.0781 -0.03288,0.92232 -0.172503,1.84067 -0.528939,2.70298 -0.07418,0.15881 -0.150224,0.31446 -0.232574,0.46561 -0.480047,-0.27811 -0.837312,-0.94668 -1.029652,-1.35859 -0.40767,-1.20073 -0.637702,-2.4399 -0.591036,-3.70908 0.02049,-0.39993 0.0457,-0.80194 0.08072,-1.20284 z m -21.843412,1.93569 c 0.01333,-3.6e-4 0.02443,10e-4 0.03049,0.007 0.0019,0.002 0.0027,0.004 0.0046,0.006 -0.403684,0.24712 -0.480322,0.30369 -0.143382,0.0121 0.0077,-0.002 0.06839,-0.024 0.108384,-0.0252 z m -11.722453,0.67274 c -0.07082,0.0392 -0.140946,0.0798 -0.212252,0.11805 0.07997,-0.0522 0.148571,-0.09 0.212252,-0.11805 z m 6.317909,0.1328 c -0.371297,0.21164 -0.532335,0.31121 -0.09653,0.041 0.03245,-0.0125 0.06452,-0.027 0.09653,-0.041 z m -4.907217,3.33528 c 0.0046,0.0109 0.01046,0.0246 0.01581,0.0371 -0.009,-0.003 -0.01343,-0.017 -0.01581,-0.0371 z m 17.667789,0.13007 c 0.02353,-0.012 -0.02421,0.0532 -0.04968,0.0606 -0.01461,0.004 -0.02832,-0.003 -0.04234,-0.0121 0.0309,-0.0158 0.06103,-0.033 0.09202,-0.0487 z m 8.610917,0.0334 c 0.118859,-0.0601 -0.224793,0.14346 -0.344912,0.20111 -0.04048,0.0194 -0.09632,0.0363 -0.144512,0.0552 0.163154,-0.0854 0.325015,-0.17323 0.489424,-0.2563 z m -17.628839,0.99736 c -0.315604,0.23695 -0.558622,0.32728 0,0 z m -7.882145,3.40849 c 0.0049,-3.3e-4 -0.07548,0.0546 -0.263622,0.18363 -0.03811,0.0143 -0.07184,0.0224 -0.107255,0.0328 0.211293,-0.12378 0.365048,-0.21601 0.370877,-0.21642 z m 19.364682,8.78386 c -0.08157,0.005 -0.16123,0.0288 -0.241605,0.0432 -1.02579,0.43146 -2.139846,0.91366 -2.811222,1.81164 -0.22407,0.29969 -0.282921,0.46105 -0.451036,0.80117 -0.414442,0.98364 -0.667997,2.03352 -0.75587,3.09317 -0.01982,0.23857 -0.01746,0.47837 -0.02653,0.71755 0.04104,1.03278 0.185636,2.11995 0.814577,2.98934 0.09888,0.13668 0.22,0.25646 0.330231,0.38474 0.60976,0.55962 1.397336,0.85247 2.241075,0.73286 0.173742,-0.0247 0.341189,-0.0787 0.512003,-0.11804 1.175208,-0.48716 2.359985,-1.06639 3.271856,-1.94608 0.49934,-0.48173 0.88721,-1.04162 1.273517,-1.60781 0.488074,-0.78942 0.913467,-1.61814 1.191099,-2.50022 0.153513,-0.48774 0.173976,-0.64905 0.274912,-1.13999 0.08402,-0.72675 0.04837,-1.49994 -0.416037,-2.11222 -0.08048,-0.1061 -0.181022,-0.19632 -0.271525,-0.29456 -0.697429,-0.61584 -1.508217,-0.77637 -2.422845,-0.80609 -0.530604,0.0326 -1.024557,0.15553 -1.497058,0.33227 -0.01797,-0.0158 -0.03425,-0.0331 -0.0525,-0.0487 -0.275665,-0.18656 -0.614562,-0.35417 -0.96304,-0.33228 z m -1.237952,1.26843 c 0.08656,0.029 0.180001,0.0757 0.278299,0.12843 -0.187805,0.11256 -0.376331,0.22394 -0.565067,0.33554 0.09212,-0.16205 0.184161,-0.31746 0.286768,-0.46397 z m -0.688129,0.0415 c -0.296475,0.16688 -0.428439,0.24366 -0.02427,0.008 0.0086,-0.003 0.01584,-0.005 0.02427,-0.008 z m 3.70878,0.0208 c 0.475897,0.0855 0.920126,0.25937 1.325452,0.59677 0.08339,0.0866 0.176195,0.16525 0.250073,0.25958 0.440864,0.56303 0.445867,1.29679 0.364668,1.96576 -0.100771,0.47526 -0.123008,0.63926 -0.276606,1.11049 -0.282394,0.86635 -0.710853,1.67858 -1.205211,2.4483 -0.396739,0.55603 -0.792585,1.10071 -1.308515,1.56244 -0.01986,0.0178 -0.0569,0.044 -0.08693,0.0667 -0.01348,0.003 -0.02651,0.008 -0.04008,0.0109 -0.787457,0.16461 -1.533062,-0.0575 -2.128737,-0.57001 -0.105774,-0.11778 -0.222465,-0.22731 -0.317251,-0.35358 -0.620427,-0.82646 -0.749459,-1.88155 -0.779576,-2.87239 0.01206,-0.23409 0.01374,-0.46887 0.03612,-0.70225 0.07574,-0.7889 0.245051,-1.5714 0.51539,-2.31934 l 1.289887,-0.58366 c 0.02534,-0.0529 0.05756,-0.10045 0.08806,-0.14919 0.158309,0.17186 0.297735,0.35893 0.404184,0.57054 0.255252,0.46929 0.47851,0.96499 0.553774,1.49413 0.09307,0.59846 0.168497,1.20441 0.05758,1.80618 l 1.94245,-0.93234 c 0.07691,-0.61661 -0.0039,-1.23477 -0.10443,-1.84442 -0.07982,-0.55044 -0.314977,-1.06937 -0.577487,-1.55971 -8.7e-4,-0.002 -0.0019,-0.003 -0.0028,-0.005 z m -10.925939,0.29456 c -0.07307,-0.003 -0.144883,0.009 -0.21056,0.0421 -1.986835,1.00462 -1.545629,0.5958 -2.274944,1.33947 -0.592599,0.72334 -0.830733,1.62882 -1.021749,2.51498 -0.147132,0.88405 -0.250473,1.80671 -0.06548,2.69478 0.03072,0.14743 0.08088,0.29035 0.121368,0.43556 0.286325,0.74256 0.692796,1.12746 1.446255,1.40396 0.402318,0.0913 0.816028,0.0315 1.174728,-0.17161 1.913939,-1.08387 1.666664,-0.80189 2.196478,-1.32033 0.105625,0.16102 0.213312,0.32072 0.325154,0.47763 0.631046,0.84817 1.444796,1.5415 2.270992,2.20512 0.790991,0.59869 1.558588,1.22242 2.271558,1.90728 0.576429,0.55185 1.030016,1.18064 1.319805,1.91274 0.218754,0.60949 0.181042,1.11731 -0.08975,1.69852 -0.09591,0.16312 -0.213561,0.30841 -0.345478,0.44101 -0.860683,0.29215 -1.765969,0.42646 -2.677433,0.45634 -0.943717,0.0317 -1.830279,-0.20533 -2.674047,-0.59296 -0.613149,-0.34223 -0.806177,-0.68961 -0.933686,-1.34165 -0.02333,-0.67267 0.239962,-1.30409 0.509744,-1.91056 l -1.930031,0.8602 c -0.272329,0.64638 -0.534931,1.31853 -0.47249,2.02968 0.149995,0.70892 0.383386,1.11985 1.043202,1.50233 0.86587,0.40462 1.774527,0.67823 2.747995,0.65962 0.185106,0 0.370661,0.008 0.555472,-0.002 0.87018,-0.0477 1.729813,-0.24719 2.550985,-0.52081 1.127519,-0.48273 0.621063,-0.24856 2.612516,-1.4056 0.420846,-0.24451 0.745505,-0.62595 0.96191,-1.04599 0.246989,-0.65396 0.256894,-1.17635 0.01185,-1.83788 -0.31343,-0.75245 -0.780292,-1.40766 -1.379077,-1.97777 -0.715886,-0.69182 -1.48965,-1.31935 -2.289059,-1.91875 -0.813753,-0.64831 -1.616046,-1.32748 -2.23599,-2.15977 -0.372577,-0.52157 -0.718153,-1.06665 -0.955703,-1.65588 0.007,-0.0231 0.01578,-0.0457 0.02258,-0.0688 0.131437,-0.5927 0.255007,-1.20418 0.222978,-1.81327 -0.180355,-1.44505 -1.879205,0.29669 -2.368087,0.59459 -0.133683,0.52568 -0.107003,1.04823 0.01355,1.57227 0.04992,0.19766 0.114136,0.38959 0.187415,0.57764 -0.192557,0.59898 -0.44118,1.18543 -0.832077,1.68485 -0.01205,-6.3e-4 -0.02409,-0.002 -0.03612,-0.002 -0.714027,-0.21102 -1.084835,-0.53167 -1.355934,-1.22033 -0.03775,-0.13688 -0.08443,-0.27199 -0.112899,-0.41096 -0.177623,-0.86745 -0.06976,-1.76516 0.08976,-2.62537 0.118835,-0.49987 0.256191,-1.00852 0.474743,-1.47665 0.231047,0.33267 0.326405,0.73705 0.39741,1.13235 l 1.909713,-0.99353 c -0.104416,-0.49836 -0.255206,-0.98783 -0.590469,-1.38592 -0.134697,-0.12713 -0.367886,-0.27451 -0.587083,-0.28418 z m -24.5914095,0.0349 -1.9091464,0.9837 c 0.2524311,1.31321 0.4764492,2.63177 0.7124018,3.9479 0.3831835,1.99155 0.6612332,3.99859 0.936509,6.00601 0.1832061,1.51893 0.3783125,3.03678 0.5317611,4.55888 0.0643,0.36614 0.010706,1.16502 0.2878963,1.50724 -0.046785,0.0374 -0.040216,0.0479 0.01129,0.0148 0.017786,0.0204 0.036517,0.0391 0.057014,0.0557 0.040044,0.0324 0.092172,0.0473 0.1383029,0.071 0.6621813,-0.36423 1.3417233,-0.70053 1.9864828,-1.09299 0.02228,-0.0135 0.226128,-0.40055 0.23822,-0.42572 0.171906,-0.35851 0.327534,-0.72605 0.495633,-1.08643 0.435539,-0.91222 0.957482,-1.78111 1.551817,-2.60407 0.167669,-0.20923 0.358411,-0.39835 0.563373,-0.57219 0.615089,-0.22171 1.26635,-0.31044 1.91592,-0.39347 0.346092,-0.0499 0.693602,-0.0844 1.042071,-0.11149 0.121107,0.93027 0.386045,1.85396 0.9128,2.64669 0.110305,0.166 0.246649,0.31483 0.369749,0.47217 0.490561,0.51287 1.089097,0.89686 1.836891,0.88533 0.474636,-0.007 0.6112,-0.0943 1.056183,-0.24647 1.293863,-0.72336 1.939367,-0.89286 2.807269,-1.7078 0.678283,-0.63688 1.196733,-1.39891 1.683345,-2.17616 0.521788,-0.91243 0.927551,-1.89411 1.093443,-2.92922 0.02891,-0.18029 0.04062,-0.36293 0.06096,-0.54431 0.121573,-1.07957 -0.231904,-1.9998 -0.769416,-2.92213 -0.471594,-0.74298 -1.029265,-1.29337 -1.834067,-1.68431 -0.506508,-0.20348 -1.049887,-0.28902 -1.587944,-0.17433 -0.211434,0.11813 -0.423067,0.23601 -0.6345,0.35413 -0.344253,-0.25206 -0.589177,-0.27563 -1.053926,-0.0978 -0.696603,0.40368 -1.412136,0.77817 -2.089787,1.21104 -0.103075,0.0658 -0.426067,0.54235 -0.475311,0.61754 -0.300803,0.45924 -0.508844,0.93075 -0.710708,1.43674 -0.307172,0.88504 -0.565179,1.79575 -0.67571,2.72593 -0.05424,0.45649 -0.05625,0.75126 -0.05362,1.10284 -0.509309,0.0724 -1.01433,0.16505 -1.492544,0.36451 -1.15,0.44122 -0.466877,0.1577 -2.594452,1.3739 -0.520808,0.2977 -0.953774,0.72561 -1.314726,1.18972 -0.353517,0.50843 -0.680196,1.03343 -0.9827975,1.57118 -0.1750469,-1.44028 -0.3685837,-2.87812 -0.5526476,-4.31733 -0.2881257,-2.00773 -0.573353,-4.016 -0.9376383,-6.01257 -0.2205336,-1.33046 -0.4388759,-2.66233 -0.6203878,-3.99818 z m 32.8410445,0.0776 c -0.149856,0.0817 -0.299097,0.16433 -0.449344,0.24538 -0.126873,0.0684 0.247085,-0.14776 0.375958,-0.21259 0.0239,-0.0121 0.04929,-0.0211 0.07338,-0.0328 z m -18.645508,2.75598 c -0.135516,0.0732 -0.270925,0.1465 -0.406441,0.2197 -0.014,-0.0162 -0.02675,-0.0333 -0.04121,-0.0492 z m 11.116742,0.58366 c 0.0092,5e-5 0.01985,0.003 0.03161,0.008 0.01602,0.007 0.02507,0.0212 0.03726,0.0322 -0.04648,0.0239 -0.09156,0.0503 -0.138303,0.0737 -0.0017,8.9e-4 0.0048,-0.11448 0.06943,-0.11421 z m -10.993681,0.5383 c 0.62274,0.33448 1.048026,0.7896 1.4519,1.40833 0.524232,0.88907 0.845888,1.76171 0.715226,2.80353 -0.153794,1.23285 -0.518104,2.30975 -1.174731,3.38392 -0.483268,0.74562 -0.996615,1.47998 -1.673184,2.07723 -0.792214,0.16418 -1.385291,-0.12191 -1.983661,-0.69514 -0.119098,-0.14757 -0.250953,-0.28624 -0.35733,-0.44267 -0.518177,-0.76192 -0.77202,-1.65685 -0.884575,-2.55706 l 0.493939,-0.34975 c -0.06081,0.002 -0.12152,0.003 -0.182333,0.005 -0.115724,0.005 -0.231057,0.0152 -0.346605,0.0224 -0.0085,-0.0961 -0.01742,-0.19228 -0.02315,-0.288 0.0037,-0.62914 -0.01469,-0.85919 0.0683,-1.48483 0.122266,-0.92182 0.388303,-1.82329 0.714661,-2.69479 0.180739,-0.41325 0.3673,-0.80621 0.609662,-1.18207 0.03424,0.0226 0.06821,0.0449 0.105562,0.0737 0.331318,0.32281 0.533767,0.73234 0.674579,1.16459 0.190045,0.64221 0.354536,1.29101 0.517649,1.94007 l 1.89955,-1.00555 c -0.19478,-0.63838 -0.349009,-1.28715 -0.534019,-1.92805 -0.02704,-0.0852 -0.05931,-0.16838 -0.09145,-0.25139 z m 11.118436,2.96749 c 0.08778,-0.0466 -0.168892,0.10451 -0.258542,0.14755 -0.0087,0.004 -0.02233,0.008 -0.03161,0.0126 0.105994,-0.0577 0.170938,-0.0969 0.290155,-0.16012 z m -22.908063,8.98552 c -0.01651,0.0229 -0.02092,0.0668 -0.04968,0.0688 -0.01535,0.001 -0.0299,-0.006 -0.04403,-0.018 0.03605,-0.0193 0.05643,-0.0309 0.09371,-0.0509 z"
       id="path3777"
       inkscape:connector-curvature="0" />
  </g>
</svg>
