<?xml version="1.0" encoding="UTF-8" standalone="no"?>
<!-- Created with Inkscape (http://www.inkscape.org/) -->

<svg
   xmlns:dc="http://purl.org/dc/elements/1.1/"
   xmlns:cc="http://creativecommons.org/ns#"
   xmlns:rdf="http://www.w3.org/1999/02/22-rdf-syntax-ns#"
   xmlns:svg="http://www.w3.org/2000/svg"
   xmlns="http://www.w3.org/2000/svg"
   xmlns:sodipodi="http://sodipodi.sourceforge.net/DTD/sodipodi-0.dtd"
   xmlns:inkscape="http://www.inkscape.org/namespaces/inkscape"
   width="600"
   height="240"
   viewBox="0 0 158.75 63.499999"
   version="1.1"
   id="svg8"
   inkscape:version="0.92.3 (2405546, 2018-03-11)"
   sodipodi:docname="logo_wide.svg">
  <defs
     id="defs2" />
  <sodipodi:namedview
     id="base"
     pagecolor="#ffffff"
     bordercolor="#666666"
     borderopacity="1.0"
     inkscape:pageopacity="0.0"
     inkscape:pageshadow="2"
     inkscape:zoom="1.979899"
     inkscape:cx="299.33916"
     inkscape:cy="149.21283"
     inkscape:document-units="mm"
     inkscape:current-layer="layer1"
     showgrid="false"
     units="px"
     inkscape:pagecheckerboard="false"
     inkscape:window-width="1904"
     inkscape:window-height="1041"
     inkscape:window-x="1920"
     inkscape:window-y="0"
     inkscape:window-maximized="1" />
  <metadata
     id="metadata5">
    <rdf:RDF>
      <cc:Work
         rdf:about="">
        <dc:format>image/svg+xml</dc:format>
        <dc:type
           rdf:resource="http://purl.org/dc/dcmitype/StillImage" />
        <dc:title></dc:title>
      </cc:Work>
    </rdf:RDF>
  </metadata>
  <g
     inkscape:label="Layer 1"
     inkscape:groupmode="layer"
     id="layer1"
     transform="translate(0,-233.5)">
    <path
       style="opacity:1;fill:#000000;fill-opacity:1;stroke:#000000;stroke-width:0.26458332;stroke-opacity:1"
       id="path873"
       d="m 44.460477,239.56159 c 0.213646,-0.32824 0.442764,-0.64561 0.608507,-1.0016 0.11379,-0.26141 0.140216,-0.54318 0.152805,-0.82444 -0.0058,-0.074 -0.0074,-0.13744 -0.02674,-0.20983 -0.0088,-0.033 -0.04786,-0.11862 -0.05633,-0.0856 -0.0065,0.0253 -0.01497,0.0897 0.0083,0.0778 0.571371,-0.29251 1.119738,-0.62793 1.67961,-0.94189 -0.217681,0.47463 -0.218279,1.03517 -0.270926,1.54794 -0.112389,1.27653 -0.12478,2.55903 -0.142483,3.83953 -3.4e-5,1.67433 0.229164,3.33264 0.472186,4.98525 0.244155,1.59845 0.629129,3.16873 1.081894,4.71946 0.346856,1.20245 0.815735,2.26472 1.554491,3.27438 0.596326,0.69902 1.081215,0.99808 1.96869,1.18538 0.342768,0.0711 0.6804,0.0586 1.016299,-0.0399 0.487604,-0.14308 2.261026,-1.18605 -0.67012,0.42109 0.756047,-0.57204 1.190127,-1.39507 1.554067,-2.24771 0.371279,-0.92568 0.577583,-1.90222 0.706546,-2.88774 0.07216,-0.69054 0.129296,-1.38326 0.02471,-2.07202 -0.08428,-0.4404 -0.24343,-0.86008 -0.4025,-1.27757 -0.138636,-0.26798 -0.295235,-0.53823 -0.508439,-0.75457 -0.381072,0.58237 -0.03183,0.0323 1.660265,-0.85828 0.01852,-0.01 -0.04141,0.0205 -0.0481,0.0404 -0.01574,0.0467 -0.01651,0.0978 -0.01514,0.14709 0.0028,0.10061 0.0613,0.42643 0.07313,0.49772 0.164303,0.9478 0.402531,1.88018 0.667641,2.80413 0.30339,1.16854 0.722374,2.29548 1.289243,3.36067 0.324496,0.56587 0.67853,1.14021 1.181156,1.56856 0.260141,0.2217 0.365204,0.25819 0.658796,0.41466 0.836171,0.35009 1.397704,0.1585 2.149602,-0.2691 -0.418515,0.23074 -0.81803,0.49993 -1.255548,0.69222 -0.156633,0.0688 0.273341,-0.20623 0.403217,-0.31761 0.621662,-0.53315 1.143947,-1.16824 1.659168,-1.80078 0.722974,-0.90111 1.338535,-1.87649 1.833319,-2.92079 0.385461,-0.81357 0.480872,-1.12155 0.79462,-1.95961 0.393997,-1.2187 0.700429,-2.47919 0.754499,-3.76408 0.03191,-0.7582 -0.01278,-0.99277 -0.07842,-1.7427 -0.146745,-1.03715 -0.463711,-2.04664 -0.957995,-2.97176 -0.269168,-0.50379 -0.427461,-0.69731 -0.754041,-1.15843 -0.721874,-0.92137 -1.52663,-1.49033 -2.615391,-1.89159 -0.418102,-0.11259 -0.849878,-0.23665 -1.287814,-0.21521 -0.05099,0.002 -0.106349,-0.003 -0.151905,0.0196 -0.02402,0.0122 -0.02185,0.0492 -0.03279,0.0738 0.556731,-0.35556 1.113465,-0.71111 1.670195,-1.06667 0,0 -1.729446,0.99212 -1.729446,0.99212 v 0 c 0.536292,-0.39335 1.072581,-0.78669 1.608871,-1.18003 0.158199,0.0192 0.315399,0.0153 0.474162,0.0382 0.357952,0.0515 0.708787,0.14694 1.050732,0.26284 1.096838,0.45046 1.917327,1.05568 2.642481,2.00713 0.329157,0.47386 0.489654,0.67475 0.761569,1.19115 0.499284,0.94822 0.817975,1.9808 0.970838,3.03981 0.06921,0.76283 0.115541,1.0033 0.08578,1.77506 -0.05025,1.30316 -0.358101,2.58106 -0.752295,3.81855 -0.642694,1.73744 -1.364049,3.46072 -2.546893,4.90945 -0.504454,0.63826 -1.017489,1.27555 -1.618869,1.82704 -0.125957,0.11551 -0.246303,0.24045 -0.39039,0.33236 -0.668689,0.42654 -1.361987,0.81322 -2.04298,1.21982 -0.133331,0.0657 -0.262236,0.14129 -0.399992,0.19713 -0.623916,0.25288 -1.270217,0.21764 -1.87071,-0.0792 -0.305202,-0.18059 -0.407622,-0.22155 -0.678288,-0.46562 -0.503362,-0.45388 -0.863092,-1.04377 -1.192541,-1.62802 -0.56593,-1.08414 -0.990571,-2.21271 -1.306123,-3.39516 -0.27432,-0.92356 -0.52569,-1.85389 -0.719299,-2.79812 -0.04854,-0.23384 -0.107072,-0.45885 -0.12088,-0.69721 -0.003,-0.0516 -0.0526,-0.1268 -0.0092,-0.15482 1.70194,-1.09748 1.240764,-1.38417 1.883691,-0.92369 0.211862,0.25173 0.390236,0.53024 0.534529,0.82593 0.158637,0.43307 0.322213,0.86567 0.409168,1.32045 0.02826,0.18916 0.06766,0.41779 0.07333,0.60814 0.01513,0.50869 -0.06547,1.01959 -0.100015,1.52551 -0.127325,1.00058 -0.332253,1.99186 -0.692271,2.93725 -0.349859,0.87129 -0.762392,1.72084 -1.494558,2.33926 -0.661281,0.39862 -1.316722,0.80709 -1.983843,1.19585 -0.539615,0.31446 -1.162023,0.3743 -1.764006,0.24172 -0.909346,-0.23217 -1.422291,-0.58311 -2.022827,-1.31527 -0.09924,-0.13997 -0.204864,-0.27562 -0.297733,-0.4199 -0.579001,-0.89951 -0.944888,-1.91331 -1.25418,-2.93094 -0.445574,-1.56282 -0.830593,-3.14274 -1.077138,-4.75053 -0.245969,-1.65913 -0.482065,-3.32294 -0.4998,-5.00371 0.0053,-1.27623 0.0075,-2.55382 0.08591,-3.82811 0.04037,-0.53309 0.05494,-1.07721 0.180666,-1.59813 1.044538,-0.63362 1.814526,-1.75107 1.984684,-0.54617 -0.0078,0.30188 -0.02463,0.60604 -0.126854,0.89343 -0.146386,0.36807 -0.364427,0.69618 -0.592238,1.01879 0,0 -1.811295,0.80741 -1.811295,0.80741 z"
       inkscape:connector-curvature="0" />
    <path
       style="opacity:1;fill:#000000;fill-opacity:1;stroke:#000000;stroke-width:0.26458332;stroke-opacity:1"
       id="path875"
       d="m 72.365837,242.58202 c -0.107489,0.89079 -0.03751,1.79385 0.03143,2.68512 0.07036,1.12752 0.252878,2.24322 0.406288,3.36129 0.157181,0.92195 0.260091,1.85017 0.32026,2.78306 0.05105,0.54008 0.08939,1.08295 0.193855,1.6159 0.0459,0.21274 0.07149,0.47739 0.287025,0.58218 0,0 -1.673987,1.07199 -1.673987,1.07199 v 0 c -0.228743,-0.18219 -0.314185,-0.44081 -0.354166,-0.72559 -0.1,-0.54683 -0.124486,-1.10213 -0.173249,-1.65539 -0.04665,-0.93175 -0.140711,-1.8594 -0.293486,-2.78017 -0.150498,-1.12203 -0.328854,-2.24152 -0.408387,-3.37174 -0.07658,-0.89274 -0.145704,-1.79074 -0.110027,-2.68712 0,0 1.774446,-0.87953 1.774446,-0.87953 z"
       inkscape:connector-curvature="0" />
    <path
       style="opacity:1;fill:#000000;fill-opacity:1;stroke:#000000;stroke-width:0.26458332;stroke-opacity:1"
       id="path877"
       d="m 81.570279,248.52904 c 0.0078,-0.49863 0.02233,-0.9983 -0.0054,-1.49645 -0.01241,-0.43378 -0.138301,-0.7897 -0.342149,-1.16483 -0.192886,-0.35311 -0.427871,-0.65496 -0.733205,-0.91489 -0.265899,-0.24038 -0.577604,-0.40394 -0.92352,-0.49082 -0.233712,-0.0514 -0.494568,-0.004 -0.704242,0.11407 -0.06355,0.0358 -0.244131,0.15939 -0.180059,0.12448 0.495813,-0.27017 0.984149,-0.55384 1.476224,-0.83075 -0.567164,0.47512 -0.824453,1.16371 -1.014802,1.85626 -0.18851,0.91231 -0.251706,1.85269 -0.172878,2.78201 0.01757,0.20711 0.05333,0.41228 0.07999,0.61842 0.196009,1.21484 0.576112,2.39475 1.082884,3.51388 0.346726,0.65138 0.70643,1.33865 1.315961,1.78597 0.08611,0.0632 0.181639,0.11245 0.27246,0.16867 0.223155,0.11567 0.468963,0.20973 0.726355,0.17262 0.0738,-0.0107 0.146889,-0.0322 0.21439,-0.0638 0.07634,-0.0358 0.287398,-0.17614 0.212875,-0.13668 -0.487296,0.25802 -0.967904,0.52847 -1.451858,0.7927 0.608581,-0.62233 0.834903,-1.49366 1.068819,-2.30744 0.313541,-1.19146 0.445005,-2.41446 0.524639,-3.64028 0.05717,-1.36499 -0.179623,-2.70641 -0.45198,-4.0367 -0.281654,-1.43328 -0.668819,-2.84381 -1.131152,-4.22869 -0.332353,-1.04879 -0.767254,-2.05688 -1.265589,-3.03603 -0.265319,-0.43743 -0.490088,-0.93565 -0.864693,-1.29466 -0.701034,0.0283 -0.152722,0.0149 1.648347,-0.88805 0.02323,-0.0117 -0.04616,0.0334 -0.05096,0.059 -0.01037,0.0551 0.0021,0.11237 0.0082,0.16816 0.02635,0.24196 0.06163,0.37674 0.113083,0.62469 0.316323,1.27039 0.677207,2.52931 1.042866,3.78622 0.478221,1.67248 1.054613,3.3152 1.647045,4.95008 0.467502,1.26425 1.003548,2.50102 1.5294,3.74157 0.274031,0.61961 0.505322,1.26178 0.847688,1.84856 0.09769,0.13897 0.186563,0.44969 0.379812,0.25317 0,0 -1.583907,1.2038 -1.583907,1.2038 v 0 c -0.263052,-0.0492 -0.391819,-0.24287 -0.503457,-0.4745 -0.324446,-0.60755 -0.544227,-1.26196 -0.809086,-1.89616 -0.509712,-1.25268 -1.031293,-2.50096 -1.492062,-3.77288 -0.585041,-1.64099 -1.158822,-3.28746 -1.655413,-4.9577 -0.376685,-1.25185 -0.752787,-2.50391 -1.114118,-3.76029 -0.07136,-0.2761 -0.149635,-0.55891 -0.192426,-0.84172 -0.0089,-0.0585 -0.06319,-0.14503 -0.01341,-0.17703 1.691828,-1.08732 1.25548,-1.365 1.889744,-0.89637 0.351007,0.40788 0.599562,0.89717 0.853004,1.36815 0.485449,0.99716 0.910428,2.02092 1.241232,3.08078 0.458054,1.39389 0.844015,2.81202 1.137047,4.25016 0.283244,1.34274 0.531844,2.6959 0.486291,4.07571 -0.07254,1.23426 -0.196427,2.46454 -0.491948,3.66845 -0.221705,0.83351 -0.439269,1.70654 -0.983401,2.39631 -0.631092,0.38886 -1.254572,0.79035 -1.893281,1.16656 -0.411195,0.24221 -0.887733,0.0734 -1.263113,-0.14533 -0.09399,-0.0651 -0.192863,-0.12373 -0.281959,-0.19541 -0.608518,-0.48957 -0.977839,-1.19258 -1.327891,-1.87387 -0.509804,-1.1377 -0.890201,-2.33641 -1.101325,-3.56655 -0.02956,-0.21093 -0.06835,-0.42077 -0.08867,-0.63279 -0.09007,-0.93985 -0.04104,-1.8908 0.120989,-2.81965 0.170572,-0.71669 0.408339,-1.42202 0.932545,-1.96341 0.625618,-0.37766 1.247635,-0.76135 1.876854,-1.13297 0.299691,-0.17701 0.65365,-0.2107 0.98471,-0.11532 0.36041,0.11935 0.688229,0.30437 0.96851,0.56327 0.315966,0.2814 0.56066,0.60784 0.769231,0.97624 0.209034,0.39286 0.36617,0.78956 0.374933,1.24302 0.03662,0.49907 0.0052,0.99997 0.02655,1.49993 0,0 -1.764739,0.89918 -1.764739,0.89918 z"
       inkscape:connector-curvature="0" />
    <path
       style="opacity:1;fill:#000000;fill-opacity:1;stroke:#000000;stroke-width:0.26458332;stroke-opacity:1"
       id="path879"
       d="m 90.331784,248.44225 c 0.474869,0.0334 0.906486,-0.0957 1.3209,-0.3159 -2.709637,1.55486 -1.539507,0.93783 -0.997246,0.50822 0.235505,-0.18658 0.451678,-0.39036 0.665014,-0.6014 0.452676,-0.47473 0.801307,-1.03162 1.129416,-1.59592 0.30842,-0.53713 0.51883,-1.11891 0.649447,-1.72249 0.08574,-0.46556 0.129415,-0.93916 0.02606,-1.4041 -0.0905,-0.40211 -0.287464,-0.61812 -0.567991,-0.89604 -0.254416,-0.21228 -0.545055,-0.29858 -0.870842,-0.23858 -0.609433,0.24616 -1.649085,0.79269 1.10431,-0.66441 0.08692,-0.046 -0.160441,0.11422 -0.235151,0.17817 -0.233286,0.19968 -0.294333,0.28971 -0.500677,0.5283 -0.6346,0.85046 -1.037502,1.83416 -1.382609,2.82919 -0.418169,1.21286 -0.622821,2.47343 -0.739833,3.74604 -0.05267,0.80849 -0.05147,1.61787 0.132974,2.41096 0.107855,0.46376 0.179676,0.61466 0.343855,1.05624 0.277651,0.61505 0.633826,1.21827 1.16409,1.65149 0.29676,0.24246 0.484119,0.31486 0.823325,0.48773 0.849384,0.35381 1.751185,0.41425 2.647646,0.21555 0.195691,-0.0434 0.385747,-0.10911 0.578617,-0.16366 0.192419,-0.0701 0.387665,-0.13283 0.577255,-0.21023 0.192982,-0.0788 0.383813,-0.16354 0.569629,-0.25799 0.191024,-0.0971 0.749483,-0.41572 0.559782,-0.31607 -0.363204,0.19081 -0.697791,0.44154 -1.080421,0.58958 -0.197096,0.0763 0.347486,-0.24098 0.514411,-0.37058 0.179094,-0.13905 0.348679,-0.28993 0.523018,-0.4349 0.79606,-0.71036 1.511017,-1.50395 2.140474,-2.36434 0.07617,-0.14718 0.357092,-0.41773 0.209314,-0.59739 0,0 1.710769,-1.00281 1.710769,-1.00281 v 0 c 0.0329,0.0534 0.0799,0.10033 0.0987,0.16013 0.0777,0.24679 -0.11766,0.47911 -0.23525,0.66875 -0.64052,0.87933 -1.371843,1.68695 -2.170535,2.42584 -1.148448,0.99947 -1.600301,1.19154 -3.187478,2.11644 -0.548542,0.31966 -1.131517,0.57139 -1.740167,0.75212 -0.198136,0.0493 -0.393811,0.10988 -0.59441,0.14797 -0.930799,0.17676 -1.862,0.0774 -2.729299,-0.30495 -0.369086,-0.19915 -0.531426,-0.2614 -0.852757,-0.53587 -0.541473,-0.46252 -0.911093,-1.08682 -1.198833,-1.72864 -0.169439,-0.45857 -0.239681,-0.60659 -0.353449,-1.08756 -0.191632,-0.81014 -0.202575,-1.63433 -0.148976,-2.46156 0.109315,-1.28421 0.306927,-2.55588 0.714057,-3.78376 0.331486,-1.00626 0.723784,-1.99565 1.321507,-2.8779 0.740394,-0.9511 1.797476,-1.74535 3.004809,-1.97267 0.363223,0.0111 0.702072,0.11659 0.967267,0.37713 0.283816,0.2883 0.526026,0.58669 0.614426,0.99414 0.124457,0.48935 0.09251,0.99083 0.0034,1.48534 -0.120658,0.62257 -0.325652,1.22265 -0.628735,1.78165 -0.325943,0.5743 -0.669856,1.14236 -1.107522,1.64011 -0.86238,0.91305 -1.839137,1.50674 -3.004166,2.06448 -0.446292,0.19165 -0.904809,0.27934 -1.392616,0.25989 0,0 1.604497,-1.16574 1.604497,-1.16574 z"
       inkscape:connector-curvature="0" />
    <path
       style="opacity:1;fill:#000000;fill-opacity:1;stroke:#000000;stroke-width:0.26458332;stroke-opacity:1"
       id="path881"
       d="m 72.728481,238.04238 c -0.253133,0.31581 -0.43759,0.68515 -0.522889,1.08083 -0.0011,0.1555 0.06236,0.35397 0.233138,0.40578 0.04261,0.0129 0.140928,-0.0237 0.176871,-0.0346 0.449088,-0.57471 0.04209,-0.0312 -1.530286,0.82588 -0.0373,0.0203 0.06346,-0.0571 0.08975,-0.0905 0.09588,-0.12172 0.132956,-0.26369 0.17259,-0.40992 0.03596,-0.23998 0.117938,-0.52251 -0.0016,-0.75016 -0.02159,-0.0179 -0.0381,-0.0451 -0.06477,-0.0538 -0.02283,-0.007 -0.120521,0.0375 -0.13225,0.0423 0.547185,-0.2966 1.089708,-0.60197 1.641552,-0.88981 0.03815,-0.0199 -0.06918,0.0522 -0.0976,0.0845 -0.03382,0.0385 -0.05846,0.0841 -0.08769,0.12613 0,0 -1.804321,0.8091 -1.804321,0.8091 v 0 c 0.338754,-0.80244 1.603841,-1.83907 2.268506,-1.10428 0.144893,0.2759 0.108177,0.57853 0.06022,0.87849 -0.19372,0.9881 -0.859838,1.57104 -2.117013,1.70572 -0.348891,-0.0549 -0.543671,-0.33686 -0.58134,-0.67797 0.05501,-0.42479 0.249645,-0.80928 0.471289,-1.17199 0,0 1.825807,-0.77574 1.825807,-0.77574 z"
       inkscape:connector-curvature="0" />
    <path
       style="opacity:1;fill:#000000;fill-opacity:1;stroke:#000000;stroke-width:0.26458332;stroke-opacity:1"
       id="path883"
       d="m 5.809117,269.02366 c -0.1902669,0.8222 -0.040933,1.74409 0.046873,2.57373 0.2391357,1.66204 0.5397709,3.31469 0.8611878,4.96257 0.3310633,1.81996 0.7112008,3.63007 1.1161987,5.43485 0.2802078,1.17697 0.5865733,2.34756 0.9448157,3.50323 0.3562242,1.0222 0.253034,0.57952 -1.6097998,1.41896 -0.038699,0.0174 -0.035772,-0.077 -0.054331,-0.11517 -0.021042,-0.0433 -0.042975,-0.0861 -0.064463,-0.12918 -0.1962835,-0.39447 -0.3612179,-0.8037 -0.5299379,-1.21052 -0.2395739,-0.51322 -0.3795554,-1.06283 -0.5191448,-1.60931 -0.2167993,-0.89505 -0.3314083,-1.80954 -0.4510828,-2.72128 -0.1692164,-1.22009 -0.3221683,-2.44247 -0.4547259,-3.6671 -0.1731581,-1.32813 -0.2482911,-2.66455 -0.2914235,-4.00223 -0.059262,-1.25711 -0.040437,-2.51051 0.087372,-3.7622 0.055842,-0.94973 0.3244347,-1.84798 0.7232697,-2.70487 0.3093646,-0.62364 0.7112823,-1.18342 1.2305525,-1.64649 0.8002135,-0.58325 0.4553831,-0.34537 2.1685599,-1.28191 0.2333619,-0.12758 0.5838676,-0.18598 0.8464065,-0.1798 0.1055558,0.002 0.2096949,0.0249 0.3145429,0.0374 0.7935,0.13221 1.446649,0.59376 2.065707,1.07827 0.765117,0.59932 1.272597,1.40176 1.699675,2.25908 0.266138,0.64998 0.504369,1.35619 0.480923,2.06974 -0.0044,0.13278 -0.02883,0.26415 -0.04324,0.39622 -0.182359,0.92727 -0.767383,1.64974 -1.392648,2.32374 -0.792644,0.79752 -1.756899,1.3872 -2.720308,1.95295 -1.4548114,0.95098 -3.0344006,1.64072 -4.6220704,2.32279 -0.1672648,0.0683 -0.5782186,0.23314 -0.7538643,0.31571 -0.092757,0.0436 -0.3614418,0.19334 -0.2728331,0.14182 1.6788275,-0.97609 1.9545525,-1.17151 1.4010415,-0.78733 0,0 -1.8338633,0.75559 -1.8338633,0.75559 v 0 c 0.6056672,-0.75091 2.0070254,-1.19889 2.9672137,-1.61735 0.6542831,-0.2797 1.3088162,-0.56005 1.950272,-0.86845 0.1719321,-0.0827 0.6702115,-0.36198 0.5126453,-0.25444 -0.3628586,0.24767 -0.7540535,0.45104 -1.13108,0.67655 0.961114,-0.55347 1.9247746,-1.12822 2.7316156,-1.89794 0.613834,-0.64191 1.20786,-1.31862 1.423666,-2.20542 0.01915,-0.12322 0.04829,-0.24529 0.05746,-0.36965 0.05061,-0.68644 -0.184844,-1.37329 -0.430871,-2.0011 -0.411163,-0.83501 -0.902688,-1.61126 -1.656654,-2.18234 -0.606319,-0.45696 -1.2452051,-0.89067 -2.0214955,-0.97131 -0.3029339,-0.006 -0.5584622,0.0157 -0.8459005,0.12141 -0.085827,0.0316 -0.3290215,0.15825 -0.2513509,0.10997 0.4660862,-0.28971 0.9457343,-0.557 1.4186013,-0.8355 -0.083519,0.0536 -0.1670381,0.1072 -0.250557,0.1608 -0.5476954,0.42007 -0.9509701,0.96966 -1.2773956,1.57551 -0.4292571,0.86021 -0.7070849,1.68833 -0.7761044,2.65725 -0.1426152,1.24629 -0.1783262,2.49412 -0.1180962,3.7479 0.042844,1.33212 0.1168963,2.66352 0.2917505,3.98583 0.1331949,1.22098 0.2858272,2.44012 0.4667083,3.65497 0.1269862,0.89964 0.2474598,1.80192 0.4694764,2.6844 0.146694,0.53442 0.2845662,1.07457 0.5219139,1.57791 0.165795,0.40093 0.3283741,0.80509 0.5341818,1.18743 0.4218771,0.76404 0.2208218,0.23544 -1.5856222,1.23539 -0.022963,0.0127 -0.00553,-0.0522 -0.0099,-0.0781 -0.00932,-0.0552 -0.017888,-0.11054 -0.031156,-0.16487 -0.020738,-0.0849 -0.04718,-0.16834 -0.07077,-0.25251 -0.3159025,-1.17885 -0.5885738,-2.36816 -0.871088,-3.55535 -0.4200414,-1.80399 -0.7610988,-3.62471 -1.1126015,-5.44302 -0.3293557,-1.64585 -0.6420339,-3.29536 -0.9123023,-4.95205 -0.1109697,-0.85764 -0.2575105,-1.73902 -0.1591398,-2.60346 0,0 1.7932016,-0.85168 1.7932016,-0.85168 z"
       inkscape:connector-curvature="0" />
    <path
       style="opacity:1;fill:#000000;fill-opacity:1;stroke:#000000;stroke-width:0.26458332;stroke-opacity:1"
       id="path885"
       d="m 16.602212,268.47855 c -0.0773,-0.39922 -0.156717,-0.80032 -0.283509,-1.1874 -0.656484,0.096 -0.941332,0.13947 1.732385,-0.89437 0.06651,-0.0257 0.01217,0.1421 0.01986,0.213 0.01262,0.11621 0.02878,0.23202 0.04107,0.34827 0.135585,1.28288 -0.05805,-0.4195 0.120133,1.11543 0.237038,1.95198 0.472719,3.90412 0.712715,5.85575 0.253298,1.99562 0.499015,3.99238 0.768277,5.98593 0.157247,1.24168 0.34529,2.4797 0.555758,3.71345 0.132078,0.47666 0.09865,1.06026 0.343474,1.50063 0.450789,-0.60365 -2.131652,1.50536 -1.637385,0.77934 0,0 1.805592,-0.82796 1.805592,-0.82796 v 0 c -0.190461,0.70808 -1.414358,1.66676 -1.892823,1.02909 -0.219725,-0.49413 -0.220698,-1.05459 -0.323099,-1.57834 -0.187331,-1.24704 -0.352425,-2.49797 -0.497511,-3.75061 -0.248885,-2.00103 -0.473191,-4.00506 -0.735085,-6.00452 -0.243094,-1.94137 -0.481904,-3.88373 -0.781382,-5.81741 -0.07341,-0.47684 -0.13327,-0.95594 -0.221777,-1.4302 -0.0127,-0.0681 -0.09492,-0.16249 -0.03946,-0.20395 0.540492,-0.40398 1.136674,-0.72921 1.726488,-1.05701 0.02482,-0.0138 0.02818,0.0493 0.04228,0.074 0.102987,0.39632 0.194269,0.79544 0.287943,1.19384 0,0 -1.743943,0.94308 -1.743943,0.94308 z"
       inkscape:connector-curvature="0" />
    <path
       style="opacity:1;fill:#000000;fill-opacity:1;stroke:#000000;stroke-width:0.26458332;stroke-opacity:1"
       id="path887"
       d="m 27.570946,280.87835 c -0.02972,-0.68778 -0.09133,-1.37304 -0.146254,-2.05906 -0.04033,-0.70156 -0.101965,-1.40296 -0.29387,-2.08072 -0.153096,-0.42172 -0.295915,-0.76414 -0.709018,-0.97443 -0.253426,-0.0958 -0.484643,-0.0933 -0.729584,0.0284 -0.07354,0.0365 -0.282638,0.1672 -0.210561,0.12786 0.483298,-0.26377 0.962946,-0.53417 1.444418,-0.80126 -0.796536,0.70427 -1.143681,1.73037 -1.4563,2.71383 -0.291679,1.22314 -0.569155,2.47612 -0.573322,3.74071 -7.67e-4,0.2294 0.02041,0.45835 0.03061,0.68753 0.08358,0.91046 0.27206,1.84032 0.765681,2.62606 0.07452,0.11862 0.166002,0.22569 0.249004,0.33854 0.369053,0.43056 0.858847,0.7641 1.434024,0.8378 0.09533,0.0122 0.192199,0.002 0.288301,0.004 0.09314,-0.0209 0.188733,-0.0329 0.279413,-0.0627 0.09447,-0.031 0.18237,-0.0794 0.273556,-0.11906 -0.471663,0.26207 -0.933456,0.54275 -1.414984,0.78622 -0.09808,0.0496 0.178419,-0.12906 0.260286,-0.20239 0.226351,-0.20272 0.274857,-0.29114 0.459492,-0.53405 0.511019,-0.78203 0.730702,-1.68613 0.879647,-2.59552 0.123962,-0.96496 0.173193,-1.9419 0.05549,-2.90909 -0.0654,-0.31775 -0.154934,-1.18122 -0.498504,-1.33218 -0.27246,0.66883 -0.015,-0.0147 1.601452,-0.81854 0.04435,-0.022 -0.05808,0.0816 -0.07532,0.12808 -0.106487,0.28682 -0.06584,0.60678 -0.05393,0.90377 0.128899,0.95249 0.491164,1.84265 0.929735,2.69009 0.30122,0.48716 0.651984,0.96447 1.091824,1.33798 0.203864,0.17312 0.366816,0.25955 0.59341,0.39654 0.451784,0.29192 0.958983,0.4379 1.486885,0.50629 0.229801,0.0184 0.121049,0.0218 0.3264,-0.003 0,0 -1.597528,1.16873 -1.597528,1.16873 v 0 c -0.218754,-0.0109 -0.105021,-7.9e-4 -0.340987,-0.0323 -0.53817,-0.0998 -1.051864,-0.27824 -1.509844,-0.58576 -0.251804,-0.16247 -0.383509,-0.23395 -0.610272,-0.43673 -0.444805,-0.39775 -0.801373,-0.89146 -1.108837,-1.39863 -0.44595,-0.87121 -0.820857,-1.78074 -0.985383,-2.75131 -0.01077,-0.13763 -0.0481,-0.55649 -0.04364,-0.70911 0.02588,-0.88525 0.969531,-1.91351 1.9749,-1.4596 0.393414,0.37803 0.437883,0.99121 0.532559,1.49687 0.11998,0.98468 0.06503,1.97947 -0.04512,2.96334 -0.136729,0.92745 -0.343064,1.84743 -0.819626,2.66709 -0.169259,0.25126 -0.225994,0.35973 -0.435446,0.57699 -0.721045,0.74791 -1.746425,1.37625 -2.79478,1.46665 -0.786037,-0.0927 -1.28908,-0.38466 -1.796975,-0.99677 -0.0858,-0.12144 -0.180241,-0.23722 -0.257384,-0.36433 -0.496663,-0.8184 -0.686893,-1.77831 -0.772435,-2.71852 -0.01033,-0.23541 -0.03118,-0.47059 -0.03101,-0.70622 9.52e-4,-1.27623 0.276601,-2.53885 0.545168,-3.77941 0.290358,-0.99927 0.61632,-2.02296 1.345992,-2.79767 0.635128,-0.3831 1.26455,-0.77583 1.905385,-1.14931 0.340506,-0.19844 0.72158,-0.17134 1.064967,-0.005 0.427516,0.2759 0.607266,0.64107 0.768683,1.11512 0.192617,0.69198 0.259458,1.40505 0.29817,2.12096 0.05556,0.67869 0.114985,1.35723 0.180009,2.03485 0,0 -1.754547,0.91858 -1.754547,0.91858 z"
       inkscape:connector-curvature="0" />
    <path
       style="opacity:1;fill:#000000;fill-opacity:1;stroke:#000000;stroke-width:0.26458332;stroke-opacity:1"
       id="path889"
       d="m 37.41231,278.31211 c -0.345109,-0.40219 -0.683268,-0.81015 -1.047014,-1.19571 -0.304808,-0.33173 -0.62004,-0.64398 -1.019977,-0.85673 -0.102682,-0.0413 -0.248877,-0.10853 -0.361286,-0.12037 -0.620442,-0.0653 -2.247413,1.06306 0.946799,-0.72075 -0.657815,0.41929 -0.947918,1.12713 -1.204114,1.82984 -0.260453,0.87682 -0.408673,1.79874 -0.386186,2.71602 0.0045,0.18418 0.02858,0.36736 0.04288,0.55104 0.126884,0.76 0.360455,1.54781 0.902838,2.12228 0.08725,0.0924 0.18865,0.17036 0.282977,0.25554 0.587216,0.47287 1.298265,0.60844 2.027174,0.68169 0.626626,0.0573 1.252503,-0.0854 1.851025,-0.26043 0.218575,-0.0776 0.279974,-0.092 0.485579,-0.19343 0.07122,-0.0351 0.277918,-0.15385 0.209074,-0.11426 -2.689241,1.54669 -1.736175,1.0232 -1.173694,0.65067 0.114784,-0.0777 0.223247,-0.16321 0.328998,-0.25257 0,0 1.840826,-0.73951 1.840826,-0.73951 v 0 c -0.113546,0.0873 -0.20914,0.19248 -0.333439,0.26574 -0.170151,0.13287 -0.123695,0.10559 -0.320106,0.21958 -0.859814,0.49902 -1.641017,1.08107 -2.590496,1.35625 -0.616159,0.1535 -1.246743,0.27905 -1.884095,0.19325 -0.760923,-0.0965 -1.490541,-0.2781 -2.090195,-0.78781 -0.09879,-0.0941 -0.205118,-0.18086 -0.296362,-0.28229 -0.552847,-0.61457 -0.795849,-1.43694 -0.935501,-2.23287 -0.01712,-0.19006 -0.04504,-0.37946 -0.05133,-0.57019 -0.03067,-0.92987 0.110069,-1.8669 0.347744,-2.76288 0.236003,-0.7196 0.497909,-1.45131 1.112975,-1.93768 0.514176,-0.29214 1.616602,-1.3177 2.515198,-1.09786 0.14973,0.0366 0.246441,0.0913 0.384059,0.1569 0.402116,0.24167 0.731258,0.56336 1.042492,0.91281 0.359717,0.38815 0.69192,0.80057 1.063078,1.17815 0,0 -1.689913,1.03558 -1.689913,1.03558 z"
       inkscape:connector-curvature="0" />
    <path
       style="opacity:1;fill:#000000;fill-opacity:1;stroke:#000000;stroke-width:0.26458332;stroke-opacity:1"
       id="path891"
       d="m 40.821022,283.14597 c 0.154477,-0.6437 0.406654,-1.25877 0.660334,-1.86843 0.287081,-0.72024 0.622268,-1.41882 0.940538,-2.12519 0.215763,-0.45977 0.391605,-0.93775 0.541827,-1.42264 0.06875,-0.31656 -0.208584,-0.42657 -0.462235,-0.50961 -0.384421,-0.10801 -0.756266,-0.0138 -1.098709,0.17412 -0.807317,0.48441 0.641461,-0.38729 1.280353,-0.71565 0.07805,-0.0401 -0.134942,0.1127 -0.196215,0.17552 -0.221392,0.22701 -0.368088,0.48989 -0.517154,0.76643 -0.409789,0.81927 -0.527428,1.72735 -0.54609,2.63193 -0.01524,1.00737 0.250307,1.97134 0.604896,2.90386 0.236472,0.50749 0.545283,0.99111 0.96434,1.36851 0.242382,0.21828 0.353793,0.27292 0.627973,0.4471 0.453276,0.2241 0.946803,0.42169 1.463222,0.37318 0.305626,-0.0287 0.446884,-0.0988 0.73459,-0.20016 0.255756,-0.1202 2.535832,-1.20296 -0.925441,0.55617 -0.133925,0.0681 0.249827,-0.16732 0.368757,-0.2591 0.386858,-0.29855 0.694084,-0.64464 1.001147,-1.0214 0.571052,-0.74123 0.946713,-1.59218 1.23835,-2.47429 0.101494,-0.31459 0.156596,-0.63961 0.207299,-0.96513 0,0 1.755261,-0.8604 1.755261,-0.8604 v 0 c -0.05267,0.33707 -0.106947,0.67447 -0.209341,1.00104 -0.292195,0.89993 -0.663421,1.77194 -1.223367,2.54197 -0.256691,0.33565 -0.329359,0.45387 -0.628817,0.75306 -0.861356,0.86059 -2.010232,1.45097 -3.117302,1.91479 -0.128717,0.0354 -0.254995,0.0812 -0.386151,0.10608 -0.673801,0.12756 -1.324986,-0.0964 -1.909715,-0.41862 -0.288113,-0.19182 -0.396447,-0.24673 -0.650357,-0.48476 -0.430201,-0.40331 -0.745955,-0.91122 -0.992751,-1.44235 -0.362884,-0.95346 -0.636465,-1.94145 -0.631867,-2.97078 -2.65e-4,-0.92029 0.09738,-1.85101 0.481605,-2.69864 0.598144,-1.27838 1.263211,-1.55204 2.748315,-2.2523 0.396197,-0.14726 0.790963,-0.20568 1.197567,-0.0531 0.338011,0.14514 0.638466,0.35962 0.605616,0.76877 -0.147691,0.49842 -0.337736,0.98677 -0.557702,1.45738 -0.314741,0.70823 -0.664456,1.40076 -0.948317,2.12293 -0.244036,0.58935 -0.486574,1.18119 -0.642443,1.80143 0,0 -1.778016,0.87827 -1.778016,0.87827 z"
       inkscape:connector-curvature="0" />
    <path
       style="opacity:1;fill:#000000;fill-opacity:1;stroke:#000000;stroke-width:0.26458332;stroke-opacity:1"
       id="path893"
       d="m 49.243776,265.73221 c -0.131959,1.21304 -0.02093,2.43707 0.08941,3.64722 0.210661,1.96065 0.481555,3.91428 0.750903,5.86755 0.221377,1.78376 0.44326,3.56744 0.648605,5.35313 0.126151,1.04623 0.251484,2.09211 0.40649,3.13448 0.04075,0.14309 0.03543,0.8374 0.23517,0.86025 0.138962,-0.71711 0.03342,-0.0253 -1.585852,0.7942 -0.05149,0.0261 0.07325,-0.09 0.101378,-0.14035 0.14832,-0.26575 0.225126,-0.57887 0.314764,-0.86652 0.304282,-1.11885 0.561332,-2.25046 0.828606,-3.37874 0.284875,-1.17137 0.62147,-2.33042 1.057048,-3.45489 0.219548,-0.50639 0.400328,-1.06255 0.768056,-1.48641 0.606634,-0.31853 1.189517,-0.68712 1.819908,-0.95558 0.169545,-0.0722 0.467886,1.065 0.491471,1.14998 0.206465,0.96301 0.400812,1.92921 0.5827,2.89722 0.175146,1.00522 0.38432,2.00384 0.676238,2.98184 0.188814,0.59194 0.406905,1.182 0.786111,1.67985 0.211561,0.28927 0.486998,0.38901 0.827313,0.43357 0.190928,-0.0521 0.09203,-0.0252 0.29669,-0.0806 0,0 -1.574342,1.19468 -1.574342,1.19468 v 0 c -0.229299,0.036 -0.114996,0.0296 -0.342834,0.0204 -0.373533,-0.0823 -0.673857,-0.24616 -0.899522,-0.56627 -0.373682,-0.53031 -0.602605,-1.1378 -0.788342,-1.75646 -0.28253,-0.9884 -0.492035,-1.99467 -0.669401,-3.00703 -0.180179,-0.95889 -0.38457,-1.9138 -0.604007,-2.86443 -0.07993,-0.26276 -0.150736,-0.53767 -0.266494,-0.78813 -0.01741,-0.0376 -0.03368,-0.0779 -0.06297,-0.10731 -0.014,-0.014 -0.07471,-0.003 -0.05783,-0.0138 0.535025,-0.32863 1.084437,-0.63323 1.626653,-0.94984 -0.04245,0.0189 -0.09187,0.0266 -0.127339,0.0566 -0.07877,0.0666 -0.204427,0.28874 -0.249539,0.36356 -0.191053,0.31688 -0.353668,0.64673 -0.488696,0.99189 -0.462579,1.11363 -0.807175,2.27079 -1.095346,3.44109 -0.260683,1.1221 -0.512754,2.24603 -0.778721,3.36673 -0.258855,0.93571 -0.672944,2.67704 -2.261592,2.12174 -0.284007,-0.26026 -0.23368,-0.67909 -0.282509,-1.0306 -0.121545,-1.0566 -0.232019,-2.11407 -0.34516,-3.17161 -0.182639,-1.79121 -0.393673,-3.57931 -0.611669,-5.36654 -0.267263,-1.95257 -0.538334,-3.90478 -0.778245,-5.86094 -0.130866,-1.20446 -0.248724,-2.41616 -0.205055,-3.62922 0,0 1.767954,-0.88072 1.767954,-0.88072 z"
       inkscape:connector-curvature="0" />
    <path
       style="opacity:1;fill:#000000;fill-opacity:1;stroke:#000000;stroke-width:0.26458332;stroke-opacity:1"
       id="path895"
       d="m 61.325743,277.13918 c -0.396748,-0.32406 -0.813226,-0.62212 -1.229354,-0.92042 -0.240247,-0.15577 -0.513977,-0.32337 -0.807575,-0.35295 -0.143378,-0.0145 -0.268435,0.0273 -0.405468,0.0592 -0.849485,0.433 0.832871,-0.50354 1.268309,-0.71954 0.09397,-0.0466 -0.164709,0.13109 -0.23658,0.2075 -0.294145,0.31267 -0.482693,0.6977 -0.6756,1.07525 -0.545143,1.19504 -0.718622,2.49638 -0.839388,3.79066 -0.01281,0.99273 0.08909,2.04944 0.586459,2.93332 0.076,0.13507 0.176223,0.25501 0.264338,0.38252 0.578405,0.61711 1.174117,0.7984 2.006457,0.63245 0.167338,-0.0334 0.328551,-0.0923 0.492826,-0.13843 -0.251555,0.21667 1.319395,-0.66241 0.987263,-0.50141 -0.384786,0.18653 -0.725032,0.47573 -1.134604,0.59863 -0.195448,0.0586 0.316886,-0.25777 0.465317,-0.3978 0.400489,-0.37781 0.458933,-0.48547 0.795171,-0.91515 0.446413,-0.67378 0.891495,-1.43336 0.942099,-2.26302 0.0079,-0.12973 -0.008,-0.25982 -0.01196,-0.38973 -0.107244,-0.73881 -0.564303,-1.28122 -1.140944,-1.71803 -0.393486,-0.24981 -0.853173,-0.49238 -1.33077,-0.52375 -0.06813,-0.004 -0.136109,0.0109 -0.204163,0.0164 -0.147172,0.028 -0.216855,0.0301 -0.35102,0.0978 -0.04773,0.024 -0.180478,0.11444 -0.133821,0.0883 1.587185,-0.88749 2.00514,-1.33 1.484834,-0.80082 0,0 -1.814576,0.79243 -1.814576,0.79243 v 0 c 0.372245,-0.77616 0.04633,-0.16654 1.873697,-1.22753 0.158054,-0.0918 0.359466,-0.0942 0.534752,-0.10621 0.578869,0.0514 1.11969,0.28577 1.588384,0.62638 0.605655,0.49005 1.089882,1.07454 1.215495,1.86794 0.0082,0.14084 0.02954,0.28152 0.02458,0.4225 -0.03036,0.8611 -0.479054,1.65859 -0.927682,2.36521 -0.318876,0.43023 -0.789934,1.0678 -1.238358,1.36615 -0.69037,0.45932 -1.409401,0.87419 -2.121443,1.29914 -0.475152,0.28358 -0.520424,0.2762 -1.025559,0.46806 -0.172059,0.0389 -0.34154,0.0918 -0.516173,0.11672 -0.869468,0.12407 -1.547926,-0.14637 -2.119945,-0.80246 -0.09071,-0.13827 -0.193267,-0.26946 -0.272137,-0.41481 -0.499689,-0.9209 -0.614381,-2.00471 -0.607428,-3.0333 0.113737,-1.30452 0.273029,-2.61555 0.776132,-3.83698 0.636608,-1.38009 1.237363,-2.05615 2.970067,-2.53893 0.534551,-0.0437 0.863436,0.11737 1.293743,0.4232 0.416727,0.30136 0.828945,0.60893 1.24696,0.90835 0,0 -1.67232,1.06318 -1.67232,1.06318 z"
       inkscape:connector-curvature="0" />
    <path
       style="opacity:1;fill:#000000;fill-opacity:1;stroke:#000000;stroke-width:0.26458332;stroke-opacity:1"
       id="path897"
       d="m 65.7168,267.25669 c 0.155983,0.84015 0.36013,1.6709 0.539975,2.50632 0.329538,1.49269 0.561983,3.00236 0.745797,4.51909 0.186883,1.54254 0.31247,3.09137 0.452972,4.63852 0.09716,0.9489 0.171116,1.9047 0.326001,2.84661 0.01553,0.0599 0.03106,0.11971 0.04658,0.17957 0,0 -1.737307,0.93345 -1.737307,0.93345 v 0 c -0.01251,-0.0667 -0.02503,-0.13342 -0.03753,-0.20014 -0.12727,-0.95776 -0.180938,-1.92587 -0.273757,-2.88726 -0.126759,-1.54905 -0.23903,-3.0998 -0.431041,-4.64269 -0.182382,-1.50736 -0.41911,-3.00717 -0.767638,-4.48607 -0.192651,-0.82399 -0.404995,-1.64313 -0.607994,-2.46431 0,0 1.743943,-0.94309 1.743942,-0.94309 z"
       inkscape:connector-curvature="0" />
    <path
       style="opacity:1;fill:#000000;fill-opacity:1;stroke:#000000;stroke-width:0.26458332;stroke-opacity:1"
       id="path899"
       d="m 71.442846,281.53347 c 0.199009,-0.54645 0.396598,-1.09395 0.580867,-1.64572 0.200691,-0.60125 0.334563,-1.21681 0.410498,-1.84523 0.06997,-0.50696 0.0458,-1.01068 -0.05196,-1.51082 -0.09102,-0.28666 -0.27541,-0.5036 -0.539038,-0.64401 -0.10613,-0.0298 -0.231595,-0.0898 -0.345617,-0.0779 -0.07248,0.008 -0.205447,0.0795 -0.26484,0.10819 0.515662,-0.28957 1.031327,-0.57914 1.546992,-0.8687 -0.542827,0.37563 -0.697489,1.04622 -0.845392,1.65087 -0.239826,1.23158 -0.242966,2.4904 -0.173545,3.73804 0.123542,1.10271 0.320051,2.21019 0.740688,3.24285 0.07248,0.17794 0.160078,0.34934 0.240117,0.52401 0.344112,0.66864 0.786098,1.30791 1.459362,1.67984 0.105397,0.0582 0.219189,0.0997 0.328785,0.14962 0.319955,0.12929 0.643313,0.16711 0.981046,0.086 0.107222,-0.0258 0.21341,-0.06 0.312774,-0.10777 0.100486,-0.0484 0.381749,-0.23018 0.282742,-0.17886 -0.465238,0.24118 -0.921525,0.49924 -1.382287,0.74886 0.677559,-0.62414 0.955294,-1.50096 1.161114,-2.37114 0.2614,-1.30063 0.221096,-2.62421 0.106317,-3.93746 -0.170553,-1.63408 -0.509391,-3.24293 -0.849611,-4.84814 -0.375568,-1.73431 -0.827368,-3.45092 -1.280176,-5.16632 -0.329935,-1.26553 -0.710385,-2.51712 -1.227339,-3.71943 -0.135662,-0.25747 -0.216757,-0.57302 -0.418065,-0.79445 -0.03075,-0.0338 -0.07008,-0.0622 -0.113205,-0.0774 -0.0275,-0.01 -0.112717,0.021 -0.08714,0.007 0.547272,-0.29896 1.10572,-0.577 1.65858,-0.8655 -0.03019,0.0318 -0.0706,0.0563 -0.09057,0.0953 -0.225499,0.44058 -0.07148,1.54605 -0.02381,2.01256 0.226446,1.65436 0.669629,3.26754 1.148419,4.86369 0.532659,1.67582 1.168826,3.31519 1.850837,4.93507 0.466857,1.15733 0.980662,2.29454 1.511191,3.42382 0.26262,0.5753 0.56482,1.13292 0.811425,1.71542 0.02024,0.0394 0.04051,0.0788 0.06077,0.11812 0,0 -1.725035,0.97516 -1.725035,0.97516 v 0 c -0.01831,-0.0441 -0.03664,-0.0883 -0.05496,-0.1324 -0.226507,-0.58892 -0.51648,-1.15153 -0.768075,-1.7298 -0.508609,-1.14363 -1.009838,-2.29084 -1.466887,-3.45627 -0.670891,-1.63226 -1.306163,-3.27914 -1.842204,-4.9614 -0.48496,-1.6005 -0.94229,-3.21394 -1.212588,-4.86692 -0.09836,-0.74817 -0.225605,-1.52075 -0.04861,-2.26682 0.610121,-0.32729 1.202978,-0.68904 1.830366,-0.98188 0.04344,-0.0203 0.08861,0.0391 0.126444,0.0685 0.297831,0.23174 0.38041,0.65576 0.534766,0.97659 0.487243,1.22732 0.855183,2.49499 1.183409,3.77329 0.442196,1.72111 0.897314,3.4396 1.282618,5.17457 0.343628,1.60955 0.69441,3.22077 0.876657,4.85858 0.130324,1.32355 0.186124,2.6568 -0.04651,3.97399 -0.189428,0.89299 -0.447323,1.79232 -1.083392,2.47839 -0.646499,0.39968 -1.287044,0.80915 -1.939499,1.19904 -0.525981,0.3143 -1.134065,0.28587 -1.680993,0.0478 -0.113914,-0.0584 -0.232423,-0.10865 -0.341747,-0.17528 -0.683783,-0.41674 -1.13535,-1.08307 -1.485884,-1.78633 -0.08126,-0.18012 -0.170415,-0.35688 -0.243771,-0.54035 -0.420531,-1.05182 -0.616519,-2.17843 -0.751475,-3.29745 -0.08454,-1.25541 -0.08858,-2.52119 0.111739,-3.76714 0.127961,-0.6308 0.265507,-1.30655 0.741212,-1.77599 0.618527,-0.35265 1.229434,-0.71902 1.855581,-1.05796 0.220763,-0.1195 0.515294,0.0115 0.714613,0.10805 0.290139,0.19657 0.504949,0.45337 0.61042,0.79281 0.09921,0.52016 0.138909,1.04285 0.06662,1.57085 -0.07148,0.6404 -0.196352,1.26906 -0.397192,1.8825 -0.177578,0.55029 -0.392618,1.08811 -0.542505,1.64691 0,0 -1.803029,0.82854 -1.803029,0.82854 z"
       inkscape:connector-curvature="0" />
    <path
       style="opacity:1;fill:#000000;fill-opacity:1;stroke:#000000;stroke-width:0.26458332;stroke-opacity:1"
       id="path901"
       d="m 77.486094,282.05697 c 0.408942,-0.31371 0.737893,-0.70878 1.054113,-1.11161 0.399793,-0.53579 0.779587,-1.08761 1.136338,-1.65299 0.359653,-0.55836 0.692046,-1.13327 1.029861,-1.70487 0.249574,-0.40229 0.451276,-0.8308 0.601226,-1.27942 0.07132,-0.26192 0.168767,-0.4568 -0.05199,-0.66001 -0.08117,-0.0404 -0.187912,-0.10082 -0.283215,-0.0932 -0.06163,0.005 -0.204052,0.0796 -0.25151,0.10217 0.516895,-0.28986 1.033793,-0.57971 1.550688,-0.86957 -0.524428,0.34093 -0.8474,0.88674 -1.123871,1.4317 -0.463997,0.99782 -0.605234,2.08579 -0.705135,3.16927 -0.05287,0.80492 -0.04008,1.61133 0.120787,2.40429 0.0932,0.45941 0.151974,0.58665 0.301228,1.02364 0.257421,0.65957 0.67037,1.25036 1.284822,1.62159 0.106749,0.0645 0.222404,0.11296 0.333606,0.16943 0.811548,0.34408 1.398058,0.24681 2.198986,-0.0423 1.097518,-0.60155 -0.636799,0.38608 -0.971804,0.54728 -0.119859,0.0577 0.213013,-0.15999 0.311515,-0.24937 0.305816,-0.2775 0.522076,-0.6017 0.738918,-0.94872 0.392649,-0.67323 0.572942,-1.43517 0.712211,-2.19436 0.06447,-0.38498 0.119448,-0.76485 0.0429,-1.14995 0,0 1.740168,-0.93182 1.740168,-0.93182 v 0 c 0.02808,0.13131 0.06513,0.27542 0.06644,0.4105 0.0026,0.27384 -0.07552,0.54753 -0.09926,0.8186 -0.138872,0.77739 -0.317585,1.56085 -0.692333,2.26239 -0.17024,0.29599 -0.232706,0.42901 -0.44355,0.69856 -0.732985,0.93709 -1.878205,1.43319 -2.936023,1.92617 -0.865034,0.26535 -1.446757,0.29844 -2.291858,-0.0846 -0.115842,-0.0643 -0.236349,-0.12085 -0.347524,-0.19293 -0.633672,-0.41084 -1.058717,-1.03838 -1.325597,-1.73495 -0.05725,-0.16952 -0.121852,-0.33674 -0.171763,-0.50856 -0.28313,-0.97471 -0.335534,-1.98836 -0.272711,-2.99672 0.0882,-1.09437 0.210185,-2.19519 0.643456,-3.21618 0.253744,-0.56613 0.563714,-1.11552 1.043715,-1.52249 0.618784,-0.35076 1.229403,-0.71635 1.856354,-1.0523 0.216935,-0.11625 0.499406,0.0363 0.665676,0.16755 0.26594,0.29847 0.244641,0.47935 0.140515,0.85428 -0.142251,0.46589 -0.342466,0.9116 -0.598199,1.32681 -0.340784,0.57335 -0.676709,1.14976 -1.036569,1.7115 -0.345221,0.57386 -0.734558,1.12074 -1.119193,1.66863 -0.310367,0.4032 -0.617241,0.81311 -1.011849,1.13995 0,0 -1.839573,0.74251 -1.839573,0.74251 z"
       inkscape:connector-curvature="0" />
    <path
       style="opacity:1;fill:#000000;fill-opacity:1;stroke:#000000;stroke-width:0.26458332;stroke-opacity:1"
       id="path903"
       d="m 86.318369,278.88491 c 0.254993,0.6284 0.474957,1.26851 0.736989,1.89426 0.273884,0.66156 0.544452,1.32553 0.88864,1.9542 0.213273,0.33752 0.420299,0.69026 0.725374,0.95365 0.21748,0.14932 0.416449,0.17447 0.667007,0.11948 0.614034,-0.39934 -0.11503,0.0772 -1.546998,0.86586 -0.01955,0.0108 0.03926,-0.0268 0.04693,-0.0477 0.01257,-0.0344 0.01241,-0.0727 0.01056,-0.10923 -0.0035,-0.0684 -0.05029,-0.24713 -0.06367,-0.30286 -0.198726,-0.49074 -0.449913,-0.95849 -0.708676,-1.41965 -0.415496,-0.7885 -0.844523,-1.56942 -1.285711,-2.34386 -0.427871,-0.76158 -0.934963,-1.47515 -1.467929,-2.16602 -0.146717,-0.2593 -0.652391,-0.54582 -0.602271,-0.8786 0.0078,-0.0518 0.0406,-0.0966 0.0609,-0.14493 0.614728,-0.36058 1.223288,-0.7319 1.844183,-1.08176 0.166478,-0.0938 0.357209,-0.1359 0.536472,-0.20208 0.419825,-0.15501 0.842687,-0.30086 1.26315,-0.45418 1.111578,-0.38939 2.156438,-0.93555 3.171153,-1.52766 -0.380323,0.21552 -0.760646,0.43105 -1.140968,0.64657 0,0 1.780966,-0.68803 1.780966,-0.68803 v 0 c -0.707105,0.41365 -1.414212,0.8273 -2.121316,1.24096 -1.027025,0.58608 -2.085464,1.11923 -3.203686,1.51118 -0.428747,0.15685 -0.85948,0.30849 -1.284428,0.47549 -0.686731,0.26989 -1.907884,0.94451 0.986624,-0.68209 -0.0236,0.007 -0.156282,0.0208 -0.157041,0.0869 -0.0019,0.16673 0.477687,0.53067 0.540729,0.70416 0.520671,0.70929 1.023493,1.43396 1.458082,2.19985 0.444216,0.77242 0.880197,1.5493 1.307502,2.33118 0.275772,0.47148 0.53881,0.95162 0.758983,1.45197 0.287772,1.05423 0.09515,1.46196 -1.776833,1.72064 -0.279979,0.007 -0.540602,-0.0833 -0.756502,-0.26441 -0.30458,-0.29484 -0.524417,-0.65954 -0.738843,-1.02261 -0.335929,-0.64019 -0.604534,-1.31143 -0.884026,-1.97756 -0.264171,-0.62135 -0.481187,-1.26148 -0.768961,-1.87203 0,0 1.723633,-0.97107 1.723633,-0.97107 z"
       inkscape:connector-curvature="0" />
    <path
       style="opacity:1;fill:#000000;fill-opacity:1;stroke:#000000;stroke-width:0.26458332;stroke-opacity:1"
       id="path905"
       d="m 104.41477,263.84902 c -0.3152,1.11199 -0.32488,2.28809 -0.37231,3.43521 -0.0663,2.09335 -0.066,4.18811 -0.066,6.28229 0.002,1.85449 0.0111,3.70896 0.0237,5.56341 0.022,1.09678 -0.0319,2.19286 -0.0643,3.28885 0.01,0.36054 -0.13139,0.82561 0.19477,1.08031 0.068,0.0239 0.18113,0.0694 0.25354,0.0693 0.0561,-8e-5 0.11043,-0.0194 0.16567,-0.029 0.25343,-0.044 0.45236,-0.12534 0.68579,-0.23467 0.0964,-0.0522 0.19302,-0.10385 0.2891,-0.15655 0.41841,-0.22948 0.27008,-0.14945 0.70184,-0.39925 0.13373,-0.0774 0.53609,-0.30748 0.40176,-0.23115 -1.25749,0.71449 -1.64691,0.95191 -0.73976,0.40907 1.531,-0.94265 3.1049,-1.80237 4.71784,-2.59235 0.62364,-0.28622 1.24679,-0.58889 1.90229,-0.79755 0.14206,-0.0452 0.67662,-0.18659 0.82986,-0.22761 0.58657,-0.15436 1.18844,-0.22485 1.79255,-0.25774 0.0634,0.005 0.12689,0.0101 0.19032,0.0151 0,0 -1.60281,1.1528 -1.60281,1.1528 v 0 c -0.0575,-7.9e-4 -0.11502,-0.002 -0.17253,-0.002 -0.58842,0.0362 -1.17337,0.11561 -1.74334,0.27102 -0.93065,0.25348 -1.82726,0.59891 -2.68791,1.03738 -0.52739,0.25855 -1.05187,0.51824 -1.56743,0.79989 -0.17257,0.0943 -0.68436,0.38751 -0.5161,0.28574 0.37264,-0.22537 0.75277,-0.43812 1.12943,-0.6567 0.1622,-0.0941 -0.32401,0.18889 -0.48601,0.28333 -1.30925,0.78502 -2.61869,1.57738 -3.97451,2.27959 -0.41367,0.15942 -0.85762,0.30061 -1.25454,0.0247 -0.37935,-0.38521 -0.26818,-0.74869 -0.24331,-1.2495 0.0619,-1.10293 0.13441,-2.20651 0.12768,-3.31171 0.0109,-1.862 0.0174,-3.72403 0.0202,-5.58606 0.004,-2.0901 7.9e-4,-4.18035 0.0295,-6.2703 0.0268,-1.14601 0.0264,-2.30447 0.24338,-3.43421 0,0 1.79158,-0.84139 1.79158,-0.84139 z"
       inkscape:connector-curvature="0" />
    <path
       style="opacity:1;fill:#000000;fill-opacity:1;stroke:#000000;stroke-width:0.26458332;stroke-opacity:1"
       id="path907"
       d="m 119.78982,276.4587 c 0.03,-0.53828 -5.3e-4,-1.07475 -0.0474,-1.61083 -0.0741,-0.50117 -0.24686,-0.97719 -0.43318,-1.4456 -0.15253,-0.42845 -0.40417,-0.78272 -0.7344,-1.08963 -0.28429,-0.21881 -0.61896,-0.41434 -0.98542,-0.44804 -0.0771,-0.007 -0.15477,0.005 -0.23216,0.008 -0.0847,0.0215 -0.17141,0.036 -0.25396,0.0645 -0.31478,0.10881 -0.63842,0.33497 -0.55695,0.29206 0.44832,-0.23615 0.8703,-0.52497 1.33492,-0.72716 0.1355,-0.059 -0.22866,0.18788 -0.33395,0.29157 -0.11653,0.11477 -0.22029,0.24183 -0.33043,0.36275 -0.83234,1.03075 -1.18559,2.26813 -1.44472,3.54258 -0.15089,1.16322 -0.0923,2.37919 0.31807,3.48926 0.0737,0.1994 0.17352,0.38816 0.26028,0.58224 0.43659,0.85264 1.10931,1.53219 1.99125,1.91987 0.15364,0.0675 0.31546,0.1147 0.47319,0.17205 0.66023,0.13572 1.31141,0.0189 1.91774,-0.26633 0.15882,-0.0747 0.61444,-0.33954 0.45895,-0.25813 -0.40275,0.21089 -0.80057,0.43107 -1.20086,0.6466 0.90699,-0.69461 1.4377,-1.50924 1.88597,-2.54201 0.19645,-0.56576 0.38994,-1.15548 0.3647,-1.76267 -0.0129,-0.30943 -0.0615,-0.47897 -0.12469,-0.7805 -0.20373,-0.78653 -0.6466,-1.45772 -1.16401,-2.07057 -0.42532,-0.46725 -0.9281,-0.79106 -1.53173,-0.96552 -0.14249,-0.0286 -0.23314,-0.0694 -0.3756,-0.0181 -0.0502,0.018 -0.18034,0.11338 -0.13356,0.0879 1.59473,-0.87002 1.95895,-1.3372 1.47559,-0.75561 0,0 -1.80845,0.79845 -1.80845,0.79845 v 0 c 0.40289,-0.85992 1.55272,-1.48497 2.46703,-1.21709 0.61519,0.22069 1.1328,0.58142 1.56981,1.07111 0.5308,0.64083 0.98578,1.34201 1.20789,2.15353 0.0696,0.31413 0.12297,0.49704 0.14265,0.8205 0.0384,0.63108 -0.15034,1.24431 -0.34621,1.83622 -0.16425,0.40099 -0.21942,0.5722 -0.43522,0.95119 -0.36503,0.64106 -0.84561,1.21915 -1.41136,1.6915 -0.91291,0.55225 -2.31151,1.63691 -3.54956,1.74887 -0.44611,0.0403 -0.56504,-0.0147 -1.00195,-0.0986 -0.1616,-0.0646 -0.32771,-0.11894 -0.48479,-0.19387 -0.90296,-0.43073 -1.58923,-1.15051 -2.03902,-2.03783 -0.0895,-0.20191 -0.19232,-0.3984 -0.26839,-0.60573 -0.41714,-1.13685 -0.48726,-2.38161 -0.35131,-3.5745 0.23897,-1.27836 0.57788,-2.55562 1.36715,-3.61648 0.86102,-1.0414 1.03537,-0.95479 2.61613,-1.89838 0.27473,-0.164 0.56744,-0.26853 0.88832,-0.2824 0.4888,0.0479 0.93018,0.22432 1.29868,0.55677 0.34483,0.33186 0.61207,0.71086 0.77624,1.16458 0.19121,0.48693 0.36812,0.98092 0.45589,1.49869 0.0427,0.53834 0.0793,1.07534 0.0736,1.61581 0,0 -1.76474,0.89917 -1.76474,0.89917 z"
       inkscape:connector-curvature="0" />
    <path
       style="opacity:1;fill:#000000;fill-opacity:1;stroke:#000000;stroke-width:0.26458332;stroke-opacity:1"
       id="path909"
       d="m 128.08452,276.3306 c 0.0718,-0.46807 0.0978,-0.94154 0.11499,-1.41426 0.0366,-0.47965 0.006,-0.88516 -0.1272,-1.34567 -0.15318,-0.41434 -0.45086,-0.72381 -0.7838,-1.00047 -0.32288,-0.20577 -0.71862,-0.36731 -1.10985,-0.30908 -0.0907,0.0135 -0.17792,0.0449 -0.26688,0.0674 -0.0964,0.039 -0.1964,0.0699 -0.28908,0.11692 -0.10269,0.0521 -0.39687,0.23367 -0.29512,0.17969 0.45459,-0.24115 0.88489,-0.53007 1.35407,-0.74144 0.12392,-0.0558 -0.20914,0.17412 -0.30612,0.26934 -0.29389,0.28856 -0.33063,0.36742 -0.57727,0.70272 -0.42967,0.67955 -0.7516,1.44558 -0.7245,2.26486 0.005,0.15392 0.0367,0.30582 0.0551,0.45874 0.15904,0.76367 0.56755,1.41071 1.20382,1.86539 0.12455,0.089 0.26008,0.16154 0.39012,0.24231 0.66678,0.33386 1.40832,0.53431 2.1582,0.43493 0.13127,-0.0174 0.25898,-0.0555 0.38847,-0.0832 0.11904,-0.045 0.24122,-0.0825 0.35713,-0.1351 0.11376,-0.0516 0.43869,-0.2391 0.33044,-0.17677 -0.45344,0.2611 -0.90318,0.52926 -1.36611,0.77313 -0.0962,0.0507 0.17898,-0.12378 0.26341,-0.19225 0.18977,-0.15389 0.23136,-0.21527 0.39032,-0.39476 0.28677,-0.37314 0.41012,-0.69586 0.36237,-1.16341 -0.0259,-0.13766 -0.17209,-0.68618 -0.33931,-0.71549 -0.0181,-0.003 -0.0246,0.0275 -0.0369,0.0412 0.56658,-0.31274 1.12285,-0.64495 1.69975,-0.93824 0.0248,-0.0126 -0.0164,0.0542 -0.0154,0.0819 0.002,0.0509 0.0128,0.10123 0.0233,0.1511 0.0563,0.2679 0.16175,0.51968 0.25946,0.77428 0.30401,0.81019 0.68526,1.58682 1.0951,2.34774 0.52943,0.99257 1.18422,1.90658 1.87361,2.79242 0.82255,1.01396 1.71961,1.96335 2.61329,2.91406 0.83749,0.87029 1.62476,1.78207 2.26408,2.80859 0.31372,0.578 0.72688,1.23322 0.59192,1.92492 -0.0215,0.10999 -0.0713,0.21248 -0.10692,0.31872 -0.18591,0.35454 -0.46453,0.60782 -0.81302,0.80115 -1.74383,0.96743 -1.71836,1.09368 -3.18534,1.383 -1.45638,0.25945 -2.91664,0.0306 -4.34306,-0.28232 -1.48258,-0.34439 -2.90865,-0.87555 -4.32157,-1.43255 -0.68607,-0.31283 -1.47848,-0.51165 -2.05593,-1.02536 -0.0674,-0.06 -0.12219,-0.13269 -0.18328,-0.19903 -0.13639,-0.2744 -0.0961,-0.12967 -0.12136,-0.43402 0,0 1.75905,-0.89348 1.75905,-0.89348 v 0 c -0.0325,0.20788 -0.043,0.10441 0.0402,0.30941 0.56019,0.61545 1.39488,0.85847 2.13375,1.18893 1.39704,0.56504 2.814,1.08825 4.2884,1.41654 1.42394,0.29605 2.87826,0.49871 4.32232,0.19897 0.19177,-0.0442 0.38553,-0.0805 0.57529,-0.13268 0.17088,-0.047 0.64115,-0.27848 0.50561,-0.16432 -0.36669,0.30885 -0.81778,0.50096 -1.21825,0.76454 -0.11552,0.076 0.24759,-0.12476 0.36268,-0.20143 0.0998,-0.0665 0.19441,-0.14193 0.27951,-0.22637 0.0767,-0.0761 0.1355,-0.16843 0.20324,-0.25264 0.0441,-0.0903 0.1026,-0.17479 0.13235,-0.27074 0.1988,-0.64118 -0.22835,-1.28495 -0.50392,-1.82777 -0.61945,-1.0234 -1.39724,-1.92584 -2.22494,-2.78699 -0.89491,-0.95751 -1.79908,-1.90841 -2.62716,-2.92534 -0.70157,-0.89001 -1.36662,-1.81085 -1.90755,-2.80933 -0.41976,-0.7634 -0.80863,-1.54383 -1.13083,-2.35408 -0.13081,-0.31691 -0.26871,-0.62953 -0.34426,-0.96538 -0.011,-0.049 -0.0685,-0.1193 -0.0274,-0.14808 0.55491,-0.3884 1.15968,-0.70019 1.73953,-1.05028 0.30338,0.20054 0.40541,0.56595 0.48805,0.90222 0.019,0.12953 0.0522,0.30661 0.0421,0.43861 -0.0238,0.31429 -0.17934,0.61591 -0.34596,0.87465 -0.68853,0.88464 -1.562,1.2057 -2.60742,1.79231 -0.1101,0.0618 -0.2269,0.11179 -0.34526,0.15572 -0.12139,0.0451 -0.24825,0.0738 -0.37238,0.11063 -0.13401,0.0194 -0.26699,0.0483 -0.40204,0.0581 -0.77712,0.0566 -1.53822,-0.17038 -2.21726,-0.53421 -0.13491,-0.0876 -0.27576,-0.16668 -0.40472,-0.26283 -0.66287,-0.49422 -1.09279,-1.18688 -1.27306,-1.99083 -0.023,-0.1628 -0.06,-0.32424 -0.0691,-0.48841 -0.0469,-0.84682 0.25302,-1.64549 0.67574,-2.36371 0.84879,-1.26387 1.19636,-1.26196 2.81092,-2.22008 0.27414,-0.16268 0.33608,-0.16345 0.63106,-0.25433 0.0976,-0.0123 0.19449,-0.0342 0.29285,-0.0371 0.43075,-0.0127 0.84621,0.173 1.18975,0.41682 0.35781,0.30679 0.67141,0.6511 0.84233,1.09901 0.0282,0.0939 0.10935,0.35503 0.12626,0.44998 0.0559,0.31387 0.0322,0.63726 0.0279,0.95354 -0.0185,0.4744 -0.0434,0.94842 -0.0902,1.42102 0,0 -1.77802,0.87827 -1.77802,0.87827 z"
       inkscape:connector-curvature="0" />
    <path
       style="opacity:1;fill:#000000;fill-opacity:1;stroke:#000000;stroke-width:0.26458332;stroke-opacity:1"
       id="path911"
       d="m 140.12263,278.19062 c 0.13184,-0.47645 0.23772,-0.95915 0.3494,-1.44055 0.10916,-0.45166 0.14325,-0.91508 0.16299,-1.37774 0.0416,-0.51319 -0.068,-1.00707 -0.20706,-1.49665 -0.12226,-0.5244 -0.368,-1.00333 -0.65586,-1.45408 -0.25345,-0.39263 -0.4581,-0.59087 -0.91208,-0.70707 0.19153,-0.22166 -0.72085,0.28984 -0.5719,0.20673 0.48437,-0.27023 0.95496,-0.56605 1.44983,-0.81652 0.097,-0.0491 -0.1721,0.13348 -0.25,0.20925 -0.086,0.0836 -0.16021,0.17844 -0.24031,0.26765 -0.62526,0.78591 -0.94158,1.74102 -1.20025,2.69682 -0.22403,0.93669 -0.31701,1.91516 -0.0904,2.86278 0.0472,0.19756 0.12088,0.38785 0.18132,0.58178 0.36124,0.85626 0.89422,1.66146 1.71797,2.13395 0.13806,0.0792 0.28796,0.13567 0.43193,0.2035 0.62785,0.19942 1.24193,0.12594 1.8366,-0.14386 0.15608,-0.0708 0.60388,-0.32459 0.45331,-0.24271 -0.39603,0.21538 -0.79314,0.42879 -1.18971,0.64319 0.74714,-0.5759 1.41269,-1.27248 1.85613,-2.11209 0.0784,-0.14837 0.14058,-0.30471 0.21087,-0.45706 0.26732,-0.6475 0.32159,-1.35697 -0.0962,-1.95756 -0.0759,-0.10918 -0.17491,-0.20036 -0.26237,-0.30055 -0.7627,-0.67003 -1.73842,-0.89564 -2.71343,-1.05117 -0.9107,-0.12878 -1.83434,-0.042 -2.73529,0.11604 -0.25322,0.0695 -0.1393,0.0581 -0.33835,0.0589 0,0 1.5989,-1.17854 1.5989,-1.17854 v 0 c 0.16182,-0.0252 0.0622,-0.009 0.29835,-0.0511 0.90744,-0.13035 1.83275,-0.18653 2.74277,-0.0441 1.01421,0.17783 2.02426,0.43567 2.80421,1.15136 0.095,0.11177 0.20195,0.21446 0.28514,0.33532 0.44543,0.64702 0.44089,1.41264 0.16164,2.1228 -0.0693,0.15913 -0.13032,0.32213 -0.20791,0.47739 -0.43063,0.86166 -1.08547,1.58104 -1.82259,2.19138 -0.84164,0.5052 -2.32398,1.66493 -3.53776,1.68122 -0.42326,0.006 -0.5479,-0.0636 -0.95044,-0.18103 -0.14859,-0.0767 -0.30363,-0.1421 -0.44579,-0.23017 -0.83845,-0.51946 -1.38336,-1.36058 -1.76413,-2.24956 -0.0671,-0.20085 -0.14877,-0.39737 -0.20114,-0.60254 -0.24664,-0.96625 -0.15741,-1.97341 0.0536,-2.93466 0.24547,-0.96893 0.54301,-1.93823 1.1334,-2.75989 0.71737,-0.91801 0.91346,-0.82287 2.36526,-1.64566 0.20819,-0.11799 0.43508,-0.1409 0.66507,-0.0919 0.45427,0.16036 0.72947,0.41773 0.98014,0.82944 0.29169,0.46877 0.54908,0.964 0.67845,1.5045 0.14876,0.50471 0.27912,1.01724 0.24226,1.54861 -0.0142,0.47395 -0.0426,0.94886 -0.14769,1.41287 -0.11392,0.47742 -0.22417,0.95577 -0.33084,1.43468 0,0 -1.78803,0.85654 -1.78803,0.85654 z"
       inkscape:connector-curvature="0" />
    <path
       style="opacity:1;fill:#000000;fill-opacity:1;stroke:#000000;stroke-width:0.26458332;stroke-opacity:1"
       id="path913"
       d="m 19.122345,241.12326 c -0.197673,-0.33263 -0.272086,-0.72848 -0.472488,-1.0576 -0.445137,-0.526 -0.154057,-0.16502 1.738278,-0.92225 0.05541,-0.0222 0.03216,0.115 0.05086,0.17168 0.03562,0.10795 0.07531,0.21451 0.112069,0.32207 0.192306,0.56279 0.150319,0.44411 0.348059,1.07411 0.630052,1.96328 1.15951,3.95667 1.72243,5.93972 0.640311,2.22904 1.243044,4.46851 1.880838,6.69826 0.355942,1.23657 0.761601,2.45705 1.263354,3.64203 0.04422,0.0888 0.08408,0.18 0.132663,0.26654 0.01897,0.0338 0.135864,0.24558 0.218834,0.26649 0.0217,0.005 0.07119,-0.0536 0.05137,-0.0432 -1.679455,0.87915 -2.05166,1.3958 -1.609206,0.80972 0.04827,-0.25515 -0.03945,-0.50436 -0.122811,-0.74191 0,0 1.715972,-0.95259 1.715972,-0.95259 v 0 c 0.108279,0.27789 0.191751,0.55817 0.206395,0.85866 -0.141459,0.80382 -1.530782,1.72118 -2.03923,0.97603 -0.115846,-0.16978 -0.162457,-0.30239 -0.247324,-0.494 -0.459804,-1.21533 -0.842817,-2.45594 -1.182701,-3.71022 -0.604233,-2.2412 -1.204693,-4.48367 -1.848931,-6.71378 -0.573643,-1.97005 -1.118398,-3.95077 -1.805233,-5.88543 -0.162013,-0.45731 -0.325291,-0.90966 -0.51986,-1.35415 -0.02873,-0.0656 -0.146191,-0.15318 -0.08863,-0.19585 1.70395,-1.26318 1.616576,-1.68573 1.743684,-0.99883 0.16781,0.34597 0.267643,0.7237 0.469465,1.05374 0,0 -1.717858,0.99078 -1.717858,0.99078 z"
       inkscape:connector-curvature="0" />
    <path
       style="opacity:1;fill:#000000;fill-opacity:1;stroke:#000000;stroke-width:0.26458332;stroke-opacity:1"
       id="path915"
       d="m 16.958924,250.02 c 0.877786,-0.05 1.705487,-0.403 2.507666,-0.73523 1.488517,-0.65197 2.943106,-1.37617 4.380241,-2.1336 0.758251,-0.40767 1.510846,-0.82597 2.260774,-1.24874 0.223771,-0.12615 0.891589,-0.51072 0.669702,-0.38129 -1.582978,0.92339 -1.120826,0.64766 -0.474099,0.25247 1.025906,-0.67304 2.100474,-1.26182 3.164316,-1.87252 0.07771,-0.0446 0.309546,-0.18069 0.231682,-0.13634 -0.50986,0.29038 -1.018458,0.58297 -1.527685,0.87445 1.813483,-1.0282 1.111403,-1.08842 1.855898,-1.01218 0,0 -1.593379,1.20445 -1.593379,1.20445 v 0 c -0.480885,0.43828 -0.03402,0.0279 1.575991,-0.91075 -0.611656,0.35916 -1.222452,0.7198 -1.83497,1.07749 -0.07433,0.0434 -0.299675,0.16949 -0.225528,0.12577 0.455885,-0.26881 0.913675,-0.53438 1.370795,-0.80109 0.118661,-0.0692 -0.237953,0.13741 -0.355401,0.20867 -0.09811,0.0595 -0.820558,0.51303 -0.889691,0.55637 -1.852689,1.14187 -3.765359,2.18486 -5.675869,3.22594 -1.45173,0.76167 -2.92094,1.49135 -4.42449,2.146 -0.839569,0.34079 -1.694248,0.66891 -2.605697,0.74563 0,0 1.589744,-1.1855 1.589744,-1.1855 z"
       inkscape:connector-curvature="0" />
    <path
       style="opacity:1;fill:#000000;fill-opacity:1;stroke:#000000;stroke-width:0.26458332;stroke-opacity:1"
       id="path917"
       d="m 27.282208,237.94099 c -0.455747,0.79392 -0.740825,1.66943 -1.032833,2.53264 -0.456432,1.45357 -0.854397,2.92428 -1.271273,4.3894 -0.412286,1.39736 -0.828562,2.794 -1.291174,4.17566 -0.265157,0.82711 -0.532892,1.65464 -0.743164,2.49777 -0.07561,0.36268 -0.15984,0.73226 -0.115268,1.10381 0.033,0.0979 0.09819,0.12472 0.18691,0.16182 0,0 -1.665047,1.08136 -1.665047,1.08136 v 0 c -0.124707,-0.0869 -0.225073,-0.16911 -0.276647,-0.31942 -0.05845,-0.39939 0.01911,-0.79344 0.108793,-1.18395 0.215806,-0.85796 0.513827,-1.69282 0.783618,-2.53468 0.479511,-1.38113 0.910847,-2.77833 1.324403,-4.1805 0.413556,-1.46054 0.806208,-2.92691 1.237848,-4.38232 0.275634,-0.85876 0.545569,-1.72498 0.948932,-2.53443 0,0 1.804902,-0.80716 1.804902,-0.80716 z"
       inkscape:connector-curvature="0" />
    <path
       style="opacity:1;fill:#000000;fill-opacity:1;stroke:#000000;stroke-width:0.26458332;stroke-opacity:1"
       id="path919"
       d="m 18.062761,240.7157 c -0.303566,0.2481 -0.66166,0.44191 -0.889069,0.76889 -0.0067,0.0386 -0.02423,0.0769 -0.02007,0.1158 0.03213,0.30093 0.621422,1.00028 0.802287,1.23594 0.766724,1.02442 1.622938,1.97071 2.537385,2.86375 1.183414,1.10647 2.495197,2.06011 3.801194,3.0139 1.189636,0.8565 2.37582,1.71767 3.530967,2.62036 0.727091,0.56242 1.397222,1.1921 2.072301,1.8146 0.08136,0.0688 0.460423,0.49147 0.567193,0.51575 0.01476,0.003 0.0118,-0.0279 0.01767,-0.0418 0,0 -1.633638,1.14872 -1.633638,1.14872 v 0 c -0.224698,-0.17656 -0.414758,-0.39252 -0.611161,-0.5989 -0.652775,-0.63113 -1.30497,-1.26491 -2.019365,-1.82726 -1.143789,-0.90765 -2.316396,-1.7771 -3.500346,-2.6316 -1.314387,-0.95951 -2.630447,-1.92335 -3.829183,-3.02754 -0.926096,-0.89697 -1.789625,-1.85054 -2.59255,-2.85992 -0.262881,-0.32598 -0.798372,-0.91681 -0.905703,-1.32823 -0.01682,-0.0645 -0.01292,-0.1326 -0.01938,-0.1989 0.02119,-0.0566 0.03227,-0.11811 0.06358,-0.1698 0.178996,-0.29546 0.531945,-0.45749 0.788298,-0.67125 0,0 1.839572,-0.74251 1.839572,-0.74251 z"
       inkscape:connector-curvature="0" />
    <path
       style="opacity:1;fill:#000000;fill-opacity:1;stroke:#000000;stroke-width:0.26458332;stroke-opacity:1"
       id="path921"
       d="m 127.13855,238.65665 c 0.0199,-0.43743 -0.006,-0.87572 0.0163,-1.31287 0.0874,-0.82309 0.0112,-0.44826 1.84946,-0.99383 0.0756,-0.0224 0.0418,0.15247 0.0538,0.23044 0.0211,0.13763 0.0588,0.67664 0.0664,0.77726 0.0967,1.62792 0.0945,3.25988 0.10454,4.89007 0.009,2.01439 0.0112,4.0288 0.02,6.04319 -0.0132,1.36058 -0.0571,2.72059 -0.0781,4.08105 -0.0257,0.53942 0.0314,1.08298 -0.0318,1.62026 -0.10554,0.74406 -0.008,0.24028 -1.79927,0.98827 -0.043,0.0179 -0.0245,-0.0899 -0.0367,-0.13485 0,0 1.75305,-0.93803 1.75305,-0.93803 v 0 c 0.0293,0.70357 -2.06449,1.67346 -1.69394,0.95645 0.10076,-0.5349 0.0554,-1.08294 0.0945,-1.62418 0.0484,-1.36962 0.11576,-2.73862 0.1435,-4.1089 0.009,-2.01593 0.0123,-4.03195 -0.007,-6.04783 -0.0211,-1.61152 -0.0357,-3.22614 -0.18162,-4.83228 -0.005,-0.045 -0.0707,-0.63483 -0.0875,-0.7367 -0.0101,-0.0615 -0.0923,-0.14556 -0.0419,-0.18219 3.27277,-2.37848 1.7932,-1.52384 1.639,-0.86901 -0.054,0.42786 -0.0137,0.86309 -0.0157,1.2933 0,0 -1.76711,0.90038 -1.76711,0.90038 z"
       inkscape:connector-curvature="0" />
    <path
       style="opacity:1;fill:#000000;fill-opacity:1;stroke:#000000;stroke-width:0.26458332;stroke-opacity:1"
       id="path923"
       d="m 122.75766,244.06121 c 0.7519,-0.38674 1.58929,-0.54375 2.41477,-0.68554 1.4221,-0.2669 2.75886,-0.10993 4.15865,0.18273 1.40714,0.35188 2.76786,0.86257 4.14075,1.32591 1.04103,0.32233 2.069,0.69154 3.12393,0.96683 0.28257,0.0329 0.59279,0.24538 0.87837,0.22314 0,0 -1.62431,1.14747 -1.62431,1.14747 v 0 c -0.28306,-0.0936 -0.56459,-0.19173 -0.85113,-0.27465 -1.04011,-0.30206 -2.05845,-0.67509 -3.0904,-1.00336 -1.36331,-0.46773 -2.71858,-0.97398 -4.12223,-1.30943 -0.61298,-0.12074 -0.81147,-0.17548 -1.43359,-0.23571 -0.90448,-0.0876 -1.80773,-0.0399 -2.70101,0.12494 -0.8391,0.16434 -1.69004,0.34569 -2.43552,0.78499 0,0 1.54172,-1.24732 1.54172,-1.24732 z"
       inkscape:connector-curvature="0" />
    <path
       style="opacity:1;fill:#000000;fill-opacity:1;stroke:#000000;stroke-width:0.26458332;stroke-opacity:1"
       id="path925"
       d="m 135.93384,236.71564 c -0.45489,0.55051 -0.83216,1.15344 -1.18716,1.77118 -0.61979,1.10508 -1.18641,2.23847 -1.7553,3.37022 -0.76982,1.54745 -1.58273,3.07306 -2.44058,4.5734 -0.74732,1.29845 -1.58773,2.5396 -2.45588,3.75943 -0.455,0.66338 -0.99481,1.26591 -1.45747,1.9228 -0.0212,0.0194 -0.0913,0.22298 -0.0191,0.044 0,0 -1.63004,1.14235 -1.63004,1.14235 v 0 c -0.1588,-0.11662 -0.24445,-0.19705 -0.15241,-0.3999 0.17358,-0.2645 0.38114,-0.49551 0.57837,-0.74288 0.31845,-0.3994 0.62484,-0.80816 0.93812,-1.21159 0.88833,-1.21486 1.738,-2.45947 2.50058,-3.75779 0.86004,-1.49097 1.67104,-3.00968 2.42811,-4.55569 0.55558,-1.12587 1.10461,-2.25537 1.70524,-3.3582 0.33794,-0.61402 0.68958,-1.22054 1.12949,-1.76882 0,0 1.81805,-0.78849 1.81805,-0.78849 z"
       inkscape:connector-curvature="0" />
    <path
       style="opacity:1;fill:#000000;fill-opacity:1;stroke:#000000;stroke-width:0.26458332;stroke-opacity:1"
       id="path927"
       d="m 125.35472,237.31359 c -0.72052,0.0772 -1.51318,0.68492 1.24171,-0.80851 0.0355,-0.0193 -0.0719,0.0407 -0.0978,0.0718 -0.08,0.0961 -0.0404,0.15981 -0.0254,0.27879 0.0298,0.0872 0.054,0.17659 0.0894,0.26171 0.1738,0.4181 0.40375,0.8199 0.61448,1.2196 0.56014,1.06243 0.0156,0.026 0.61575,1.1698 0.78185,1.56331 1.57415,3.12131 2.3663,4.67942 0.74881,1.50178 1.60176,2.94688 2.42265,4.40936 0.5675,1.01832 1.15138,2.02709 1.7623,3.01997 0.30956,0.4874 0.59158,0.98973 0.85003,1.50546 0.28007,0.75804 0.20825,0.0696 -1.72178,1.03163 0,0 1.73961,-0.96964 1.73961,-0.96964 v 0 c -2.29009,1.37174 -1.57874,1.66267 -1.73987,0.91147 -0.22268,-0.52537 -0.50442,-1.02165 -0.79595,-1.51168 -0.59418,-1.00555 -1.16516,-2.0243 -1.72321,-3.05036 -0.80931,-1.47169 -1.65471,-2.92397 -2.40112,-4.42953 -0.79217,-1.5559 -1.58847,-3.1098 -2.39751,-4.65698 -0.48193,-0.88056 -1.00773,-1.74388 -1.41736,-2.66036 -0.0381,-0.14216 -0.0975,-0.28293 -0.0632,-0.43476 0.0113,-0.0498 0.0319,-0.10681 0.0755,-0.13333 1.02522,-0.62306 1.31557,-1.02976 2.20995,-1.06959 0,0 -1.6045,1.16574 -1.6045,1.16574 z"
       inkscape:connector-curvature="0" />
  </g>
</svg>
